fpga_gen/src/hw/uut.vcd
$date
	Sun Feb  6 16:55:32 2022
$end
$version
	Icarus Verilog
$end
$timescale
	1s
$end
$scope module test_bench $end
$var wire 1 ! grn_pe_naive_pe_bypass_available $end
$var wire 32 " grn_pe_naive_pe_bypass_data [31:0] $end
$var wire 1 # grn_pe_naive_pe_bypass_valid $end
$var wire 32 $ transient [31:0] $end
$var wire 5 % s_state [4:0] $end
$var wire 32 & period [31:0] $end
$var wire 5 ' i_state [4:0] $end
$var wire 1 ( grn_pe_naive_pe_output_valid $end
$var wire 32 ) grn_pe_naive_pe_output_data [31:0] $end
$var wire 1 * grn_pe_naive_pe_output_available $end
$var wire 1 + grn_pe_naive_pe_bypass_read_enable $end
$var wire 1 , grn_pe_naive_config_output_valid $end
$var wire 1 - grn_pe_naive_config_output_done $end
$var wire 32 . grn_pe_naive_config_output [31:0] $end
$var reg 2 / config_counter [1:0] $end
$var reg 96 0 data [95:0] $end
$var reg 1 1 done $end
$var reg 3 2 fsm_consume_data [2:0] $end
$var reg 2 3 fsm_produce_data [1:0] $end
$var reg 32 4 grn_pe_naive_config_input [31:0] $end
$var reg 1 5 grn_pe_naive_config_input_done $end
$var reg 1 6 grn_pe_naive_config_input_valid $end
$var reg 1 7 grn_pe_naive_pe_output_read_enable $end
$var reg 2 8 rd_counter [1:0] $end
$var reg 5 9 rec_data_counter [4:0] $end
$var reg 1 : tb_clk $end
$var reg 1 ; tb_rst $end
$scope module grn_naive_pe $end
$var wire 1 : clk $end
$var wire 32 < config_forward [31:0] $end
$var wire 32 = config_input [31:0] $end
$var wire 1 5 config_input_done $end
$var wire 1 6 config_input_valid $end
$var wire 1 ! pe_bypass_available $end
$var wire 32 > pe_bypass_data [31:0] $end
$var wire 1 # pe_bypass_valid $end
$var wire 1 * pe_output_available $end
$var wire 1 7 pe_output_read_enable $end
$var wire 1 ; rst $end
$var wire 1 ( pe_output_valid $end
$var wire 32 ? pe_output_data [31:0] $end
$var wire 32 @ pe_init_conf [31:0] $end
$var wire 32 A pe_end_conf [31:0] $end
$var wire 1 B grn_output_valid $end
$var wire 32 C grn_output_data [31:0] $end
$var wire 1 D grn_output_available $end
$var wire 5 E grn_initial_state [4:0] $end
$var wire 5 F grn_final_state [4:0] $end
$var wire 1 G fifo_out_full $end
$var wire 1 H fifo_out_empty $end
$var reg 1 I config_counter $end
$var reg 32 J config_output [31:0] $end
$var reg 1 - config_output_done $end
$var reg 1 , config_output_valid $end
$var reg 32 K fifo_out_input_data [31:0] $end
$var reg 1 L fifo_out_write_enable $end
$var reg 3 M fsm_pe_jo [2:0] $end
$var reg 1 N grn_output_read_enable $end
$var reg 1 O is_configured $end
$var reg 1 + pe_bypass_read_enable $end
$var reg 64 P pe_data_conf [63:0] $end
$var reg 2 Q rd_wr_counter [1:0] $end
$var reg 1 R start_grn $end
$scope module grn_naive_core $end
$var wire 1 : clk $end
$var wire 5 S final_state [4:0] $end
$var wire 5 T initial_state [4:0] $end
$var wire 1 D output_available $end
$var wire 1 N output_read_enable $end
$var wire 1 ; rst $end
$var wire 1 R start $end
$var wire 1 B output_valid $end
$var wire 32 U output_data [31:0] $end
$var wire 5 V next_state_s2 [4:0] $end
$var wire 5 W next_state_s1 [4:0] $end
$var wire 1 X fifo_full $end
$var wire 1 Y fifo_empty $end
$var reg 5 Z actual_state_s1 [4:0] $end
$var reg 5 [ actual_state_s2 [4:0] $end
$var reg 96 \ data_to_write [95:0] $end
$var reg 5 ] exec_state [4:0] $end
$var reg 32 ^ fifo_input_data [31:0] $end
$var reg 1 _ fifo_write_enable $end
$var reg 1 ` flag_first_it $end
$var reg 1 a flag_pulse $end
$var reg 3 b fsm_naive [2:0] $end
$var reg 32 c period_counter [31:0] $end
$var reg 32 d transient_counter [31:0] $end
$var reg 2 e write_counter [1:0] $end
$scope module grn_naive_core_output_fifo $end
$var wire 1 : clk $end
$var wire 32 f input_data [31:0] $end
$var wire 1 N output_read_enable $end
$var wire 1 ; rst $end
$var wire 1 _ write_enable $end
$var reg 1 g almostempty $end
$var reg 1 X almostfull $end
$var reg 5 h data_count [4:0] $end
$var reg 1 Y empty $end
$var reg 1 i full $end
$var reg 32 j output_data [31:0] $end
$var reg 1 B output_valid $end
$var reg 4 k read_pointer [3:0] $end
$var reg 4 l write_pointer [3:0] $end
$upscope $end
$upscope $end
$scope module pe_naive_fifo_out $end
$var wire 1 : clk $end
$var wire 32 m input_data [31:0] $end
$var wire 1 7 output_read_enable $end
$var wire 1 ; rst $end
$var wire 1 L write_enable $end
$var reg 1 n almostempty $end
$var reg 1 G almostfull $end
$var reg 5 o data_count [4:0] $end
$var reg 1 H empty $end
$var reg 1 p full $end
$var reg 32 q output_data [31:0] $end
$var reg 1 ( output_valid $end
$var reg 4 r read_pointer [3:0] $end
$var reg 4 s write_pointer [3:0] $end
$upscope $end
$upscope $end
$upscope $end
$enddefinitions $end
#0
$dumpvars
bx s
bx r
bx q
xp
bx o
xn
b0 m
bx l
bx k
bx j
xi
bx h
xg
b0 f
b0 e
b0 d
b0 c
b0 b
0a
0`
0_
b0 ^
b0 ]
b0 \
b0 [
b0 Z
xY
xX
b0 W
b0 V
bx U
b0 T
b0 S
0R
b0 Q
b0 P
0O
0N
b0 M
0L
b0 K
b0 J
0I
xH
xG
b0 F
b0 E
xD
bx C
xB
b0 A
b0 @
bx ?
b0 >
b0 =
b0 <
1;
0:
b0 9
b0 8
07
06
05
b0 4
b0 3
b0 2
01
b0 0
b0 /
b0 .
0-
0,
0+
x*
bx )
x(
b0 '
b0 &
b0 %
b0 $
0#
b0 "
0!
$end
#5
0D
0*
b0 h
b0 l
b0 k
0X
0i
1g
1Y
0B
b0 o
b0 s
b0 r
0G
0p
1n
1H
0(
1:
#10
0:
#15
1:
#20
0:
#25
b1 /
16
0;
1:
#30
0:
#35
b10 /
b11111 4
b11111 =
16
1I
1:
#40
0:
#45
b11111 F
b11111 S
b11111 <
b11111 A
b1111100000000000000000000000000000000 P
1O
0I
b1 3
b11 /
bx 4
bx =
06
1:
#50
0:
#55
15
b11 M
1R
1:
#60
0:
#65
b1 b
1-
b0 M
1:
#70
0:
#75
b11 M
b10 b
1`
1:
#80
0:
#85
1a
0`
b0 M
1:
#90
0:
#95
b11 M
0a
b1 d
1:
#100
0:
#105
b11 b
1`
b0 M
1:
#110
0:
#115
b11 M
b1 c
0`
1:
#120
0:
#125
b100 b
b0 c
b0 M
1:
#130
0:
#135
b11 M
b101 b
b100000000000000000000000000000000 \
1:
#140
0:
#145
b1 \
1_
b1 e
b0 M
1:
#150
0:
#155
1D
b11 M
b1 ^
b1 f
b0 \
b10 e
1_
0Y
b1 h
b1 l
1:
#160
0:
#165
0g
b10 h
b10 l
b0 ^
b0 f
b11 e
b110 b
1_
b0 M
1:
#170
0:
#175
b1 M
b1 b
b1 ]
0_
b11 h
b11 l
1:
#180
0:
#185
b10101 V
b10101 W
b10 b
1`
b0 d
b1 [
b1 Z
b10 M
1N
1:
#190
0:
#195
b1100 W
b1100 V
0N
b10101 Z
1a
b10101 [
0`
1B
b0 C
b0 U
b0 j
b10 h
b1 k
1:
#200
0:
#205
b10 V
0B
0a
b1 d
b1100 [
1L
b1 Q
b1 M
1:
#210
0:
#215
b10 W
b1 V
1*
b10 M
1N
0L
0H
b1 o
b1 s
b1100 Z
1a
b10 [
1:
#220
0:
#225
b10101 V
1g
b1 h
b10 k
1B
b1 C
b1 U
b1 j
0a
b10 d
b1 [
0N
b1 2
1:
#230
0:
#235
b1 W
b1100 V
b10 2
17
1L
b10 Q
b1 K
b1 m
b1 M
b10 Z
1a
b10101 [
0B
1:
#240
0:
#245
b10 V
0a
b11 d
b1100 [
b10 s
b1 r
1(
b0 )
b0 ?
b0 q
b10 M
1N
0L
07
1:
#250
0:
#255
b10101 W
b1 V
0D
b1 8
b1 2
0N
0(
b1 Z
1a
b10 [
1B
b0 C
b0 U
b0 j
1Y
b0 h
b11 k
1:
#260
0:
#265
b10101 V
0B
0a
b100 d
b1 [
1L
b11 Q
b0 K
b0 m
b11 M
b10 2
17
1:
#270
0:
#275
07
b0 M
0L
1(
b1 )
b1 ?
b1 q
b11 s
b10 r
b11 b
1`
1:
#280
0:
#285
b1100 V
b1 %
b1 c
b10101 [
0`
0(
b11 M
b10000000000000000000000000000000000000000000000000000000000000000 0
b10 8
b1 2
1:
#290
0:
#295
b10 V
b10 2
17
b0 M
b10 c
b1100 [
1:
#300
0:
#305
b1 V
0*
b11 c
b10 [
1H
b0 o
b11 r
1(
b0 )
b0 ?
b0 q
b11 M
07
1:
#310
0:
#315
b10101 V
b1 $
b0 %
b100000000000000000000000000000000 0
b11 8
b11 2
b0 M
0(
b100 c
b1 [
1:
#320
0:
#325
b100 b
b11 c
b11 M
b1 9
b0 2
1:
#330
0:
#335
b0 M
b0 e
b101 b
b1000010000000000000000000000000000010000000000000000000000000000000011 \
1:
#340
0:
#345
b11 ^
b11 f
b10000100000000000000000000000000000100 \
1_
b1 e
b11 M
1:
#350
0:
#355
1D
b0 M
b100 ^
b100 f
b100001 \
b10 e
1_
0Y
b1 h
b100 l
1:
#360
0:
#365
0g
b10 h
b101 l
b100001 ^
b100001 f
b0 \
b11 e
b110 b
1_
b0 Q
b1 M
1:
#370
0:
#375
b10 M
1N
b1 b
b10 ]
0_
b11 h
b110 l
1:
#380
0:
#385
b1 V
b1 W
b10 h
b100 k
1B
b11 C
b11 U
b11 j
b10 b
1`
b0 c
b0 d
b10 [
b10 Z
0N
1:
#390
0:
#395
b10101 W
b10101 V
1L
b1 Q
b11 K
b11 m
b1 M
b1 Z
1a
b1 [
0`
0B
1:
#400
0:
#405
b1100 V
1*
0a
b1 d
b10101 [
0H
b1 o
b100 s
b10 M
1N
0L
1:
#410
0:
#415
b1100 W
b10 V
b1 2
b0 8
0N
b10101 Z
1a
b1100 [
1B
b100 C
b100 U
b100 j
1g
b1 h
b101 k
1:
#420
0:
#425
b1 V
0B
0a
b10 d
b10 [
1L
b10 Q
b100 K
b100 m
b1 M
b10 2
17
1:
#430
0:
#435
b10 W
b10101 V
07
b10 M
1N
0L
1(
b11 )
b11 ?
b11 q
b101 s
b100 r
b1100 Z
1a
b1 [
1:
#440
0:
#445
b1100 V
0D
b1 &
b0 $
b11 %
1Y
b0 h
b110 k
1B
b100001 C
b100001 U
b100001 j
0a
b11 d
b10101 [
0(
0N
b110000000000000000000000000000000000000000000000000000000000000001 0
b1 8
b1 2
1:
#450
0:
#455
b1 W
b10 V
b10 2
17
1L
b11 Q
b100001 K
b100001 m
b11 M
b10 Z
1a
b1100 [
0B
1:
#460
0:
#465
b1 V
0a
b100 d
b10 [
b110 s
b101 r
1(
b100 )
b100 ?
b100 q
b0 M
0L
07
1:
#470
0:
#475
b0 &
b11 $
b100 %
b1000000000000000000000000000000001100000000000000000000000000000000 0
b10 8
b1 2
b11 M
0(
b11 b
1`
1:
#480
0:
#485
b10101 V
b1 c
b1 [
0`
b0 M
b10 2
17
1:
#490
0:
#495
b1100 V
0*
07
b11 M
1(
b100001 )
b100001 ?
b100001 q
1H
b0 o
b110 r
b10 c
b10101 [
1:
#500
0:
#505
b10 V
b11 &
b100 $
b1 %
b1 '
b11 c
b1100 [
0(
b0 M
b1000010000000000000000000000000000010000000000000000000000000000000011 0
b11 8
b11 2
1:
#510
0:
#515
b1 V
b10 9
b0 2
b11 M
b100 c
b10 [
1:
#520
0:
#525
b100 b
b11 c
b0 M
1:
#530
0:
#535
b11 M
b0 e
b101 b
b10000100000000000000000000000000000010000000000000000000000000000000011 \
1:
#540
0:
#545
b11 ^
b11 f
b100001000000000000000000000000000000100 \
1_
b1 e
b0 M
1:
#550
0:
#555
1D
b11 M
b100 ^
b100 f
b1000010 \
b10 e
1_
0Y
b1 h
b111 l
1:
#560
0:
#565
0g
b10 h
b1000 l
b1000010 ^
b1000010 f
b0 \
b11 e
b110 b
1_
b0 M
1:
#570
0:
#575
b0 Q
b1 M
b1 b
b11 ]
0_
b11 h
b1001 l
1:
#580
0:
#585
b10101 V
b10101 W
b10 b
1`
b0 c
b0 d
b11 [
b11 Z
b10 M
1N
1:
#590
0:
#595
b1100 W
b1100 V
0N
b10101 Z
1a
b10101 [
0`
1B
b11 C
b11 U
b11 j
b10 h
b111 k
1:
#600
0:
#605
b10 V
0B
0a
b1 d
b1100 [
1L
b1 Q
b11 K
b11 m
b1 M
1:
#610
0:
#615
b10 W
b1 V
1*
b10 M
1N
0L
0H
b1 o
b111 s
b1100 Z
1a
b10 [
1:
#620
0:
#625
b10101 V
1g
b1 h
b1000 k
1B
b100 C
b100 U
b100 j
0a
b10 d
b1 [
0N
b1 2
b0 8
1:
#630
0:
#635
b1 W
b1100 V
b10 2
17
1L
b10 Q
b100 K
b100 m
b1 M
b10 Z
1a
b10101 [
0B
1:
#640
0:
#645
b10 V
0a
b11 d
b1100 [
b1000 s
b111 r
1(
b11 )
b11 ?
b11 q
b10 M
1N
0L
07
1:
#650
0:
#655
b10101 W
b1 V
b100 &
b100001 $
b11 %
b0 '
0D
b110000000000000000000000000010000100000000000000000000000000000100 0
b1 8
b1 2
0N
0(
b1 Z
1a
b10 [
1B
b1000010 C
b1000010 U
b1000010 j
1Y
b0 h
b1001 k
1:
#660
0:
#665
b10101 V
0B
0a
b100 d
b1 [
1L
b11 Q
b1000010 K
b1000010 m
b11 M
b10 2
17
1:
#670
0:
#675
07
b0 M
0L
1(
b100 )
b100 ?
b100 q
b1001 s
b1000 r
b11 b
1`
1:
#680
0:
#685
b1100 V
b100001 &
b11 $
b100 %
b1 c
b10101 [
0`
0(
b11 M
b1000000000000000000000000000000001100000000000000000000000000100001 0
b10 8
b1 2
1:
#690
0:
#695
b10 V
b10 2
17
b0 M
b10 c
b1100 [
1:
#700
0:
#705
b1 V
0*
b11 c
b10 [
1H
b0 o
b1001 r
1(
b1000010 )
b1000010 ?
b1000010 q
b11 M
07
1:
#710
0:
#715
b10101 V
b11 &
b100 $
b10 %
b10 '
b10000100000000000000000000000000000010000000000000000000000000000000011 0
b11 8
b11 2
b0 M
0(
b100 c
b1 [
1:
#720
0:
#725
b100 b
b11 c
b11 M
b11 9
b0 2
1:
#730
0:
#735
b0 M
b0 e
b101 b
b11000010000000000000000000000000000010000000000000000000000000000000011 \
1:
#740
0:
#745
b11 ^
b11 f
b110000100000000000000000000000000000100 \
1_
b1 e
b11 M
1:
#750
0:
#755
1D
b0 M
b100 ^
b100 f
b1100001 \
b10 e
1_
0Y
b1 h
b1010 l
1:
#760
0:
#765
0g
b10 h
b1011 l
b1100001 ^
b1100001 f
b0 \
b11 e
b110 b
1_
b0 Q
b1 M
1:
#770
0:
#775
b10 M
1N
b1 b
b100 ]
0_
b11 h
b1100 l
1:
#780
0:
#785
b0 V
b0 W
b10 h
b1010 k
1B
b11 C
b11 U
b11 j
b10 b
1`
b0 c
b0 d
b100 [
b100 Z
0N
1:
#790
0:
#795
1L
b1 Q
b11 K
b11 m
b1 M
b0 Z
1a
b0 [
0`
0B
1:
#800
0:
#805
1*
0a
b1 d
0H
b1 o
b1010 s
b10 M
1N
0L
1:
#810
0:
#815
b1 2
b0 8
0N
b11 b
1`
1B
b100 C
b100 U
b100 j
1g
b1 h
b1011 k
1:
#820
0:
#825
0B
b1 c
0`
1L
b10 Q
b100 K
b100 m
b1 M
b10 2
17
1:
#830
0:
#835
07
b10 M
1N
0L
1(
b11 )
b11 ?
b11 q
b1011 s
b1010 r
b100 b
b0 c
1:
#840
0:
#845
0D
b100 &
b1000010 $
b11 %
b0 '
1Y
b0 h
b1100 k
1B
b1100001 C
b1100001 U
b1100001 j
b0 e
b101 b
b100000000000000000000000000000000000000100000000000000000000000000000000 \
0(
0N
b110000000000000000000000000100001000000000000000000000000000000100 0
b1 8
b1 2
1:
#850
0:
#855
b10 2
17
1L
b11 Q
b1100001 K
b1100001 m
b11 M
b0 ^
b0 f
b1000000000000000000000000000000000000001 \
1_
b1 e
0B
1:
#860
0:
#865
1D
0Y
b1 h
b1101 l
b1 ^
b1 f
b10000000 \
b10 e
1_
b1100 s
b1011 r
1(
b100 )
b100 ?
b100 q
b0 M
0L
07
1:
#870
0:
#875
b1000010 &
b11 $
b100 %
b1000000000000000000000000000000001100000000000000000000000001000010 0
b10 8
b1 2
b0 Q
b1 M
0(
b10000000 ^
b10000000 f
b0 \
b11 e
b110 b
1_
0g
b10 h
b1110 l
1:
#880
0:
#885
b11 h
b1111 l
b1 b
b101 ]
0_
b10 M
1N
b10 2
17
1:
#890
0:
#895
b100 V
b100 W
0*
07
0N
1(
b1100001 )
b1100001 ?
b1100001 q
1H
b0 o
b1100 r
b10 b
1`
b0 d
b101 [
b101 Z
1B
b0 C
b0 U
b0 j
b10 h
b1101 k
1:
#900
0:
#905
b0 W
b0 V
b11 &
b100 $
b1 %
b11 '
0B
b100 Z
1a
b100 [
0`
0(
1L
b1 Q
b0 K
b0 m
b1 M
b11000010000000000000000000000000000010000000000000000000000000000000011 0
b11 8
b11 2
1:
#910
0:
#915
1*
b100 9
b0 2
b10 M
1N
0L
0H
b1 o
b1101 s
0a
b1 d
b0 [
1:
#920
0:
#925
1g
b1 h
b1110 k
1B
b1 C
b1 U
b1 j
b0 Z
1a
0N
b1 2
b0 8
1:
#930
0:
#935
b10 2
17
1L
b10 Q
b1 K
b1 m
b1 M
0a
b10 d
0B
1:
#940
0:
#945
b11 b
1`
b1110 s
b1101 r
1(
b0 )
b0 ?
b0 q
b10 M
1N
0L
07
1:
#950
0:
#955
b100 &
b1100001 $
b0 %
b0 '
0D
b110000100000000000000000000000000000100 0
b1 8
b1 2
0N
0(
b1 c
0`
1B
b10000000 C
b10000000 U
b10000000 j
1Y
b0 h
b1111 k
1:
#960
0:
#965
0B
b100 b
b0 c
1L
b11 Q
b10000000 K
b10000000 m
b11 M
b10 2
17
1:
#970
0:
#975
07
b0 M
0L
1(
b1 )
b1 ?
b1 q
b1111 s
b1110 r
b0 e
b101 b
b101000000000000000000000000000000000001000000000000000000000000000000000 \
1:
#980
0:
#985
b1100001 &
b0 $
b1 %
b0 ^
b0 f
b1010000000000000000000000000000000000010 \
1_
b1 e
0(
b11 M
b10000000000000000000000000000000000000000000000000000000001100001 0
b10 8
b1 2
1:
#990
0:
#995
1D
b10 2
17
b0 M
b10 ^
b10 f
b10100000 \
b10 e
1_
0Y
b1 h
b0 l
1:
#1000
0:
#1005
0*
0g
b10 h
b1 l
b10100000 ^
b10100000 f
b0 \
b11 e
b110 b
1_
1H
b0 o
b1111 r
1(
b10000000 )
b10000000 ?
b10000000 q
b0 Q
b1 M
07
1:
#1010
0:
#1015
b0 &
b1 $
b0 %
b100 '
b100000000000000000000000000000000000000100000000000000000000000000000000 0
b11 8
b11 2
b10 M
1N
0(
b1 b
b110 ]
0_
b11 h
b10 l
1:
#1020
0:
#1025
b10 h
b0 k
1B
b0 C
b0 U
b0 j
b10 b
1`
b0 d
b110 [
b110 Z
0N
b101 9
b0 2
1:
#1030
0:
#1035
b0 W
b0 V
1L
b1 Q
b0 K
b0 m
b1 M
b0 Z
1a
b0 [
0`
0B
1:
#1040
0:
#1045
1*
0a
b1 d
0H
b1 o
b0 s
b10 M
1N
0L
1:
#1050
0:
#1055
b1 2
b0 8
0N
b11 b
1`
1B
b10 C
b10 U
b10 j
1g
b1 h
b1 k
1:
#1060
0:
#1065
0B
b1 c
0`
1L
b10 Q
b10 K
b10 m
b1 M
b10 2
17
1:
#1070
0:
#1075
07
b10 M
1N
0L
1(
b0 )
b0 ?
b0 q
b1 s
b0 r
b100 b
b0 c
1:
#1080
0:
#1085
0D
b1 &
b10000000 $
b0 '
1Y
b0 h
b10 k
1B
b10100000 C
b10100000 U
b10100000 j
b0 e
b101 b
b110000000000000000000000000000000000000100000000000000000000000000000000 \
0(
0N
b1000000000000000000000000000000000000001 0
b1 8
b1 2
1:
#1090
0:
#1095
b10 2
17
1L
b11 Q
b10100000 K
b10100000 m
b11 M
b0 ^
b0 f
b1100000000000000000000000000000000000001 \
1_
b1 e
0B
1:
#1100
0:
#1105
1D
0Y
b1 h
b11 l
b1 ^
b1 f
b11000000 \
b10 e
1_
b10 s
b1 r
1(
b10 )
b10 ?
b10 q
b0 M
0L
07
1:
#1110
0:
#1115
b10000000 &
b0 $
b10 %
b100000000000000000000000000000000000000000000000000000000010000000 0
b10 8
b1 2
b0 Q
b1 M
0(
b11000000 ^
b11000000 f
b0 \
b11 e
b110 b
1_
0g
b10 h
b100 l
1:
#1120
0:
#1125
b11 h
b101 l
b1 b
b111 ]
0_
b10 M
1N
b10 2
17
1:
#1130
0:
#1135
b100 V
b100 W
0*
07
0N
1(
b10100000 )
b10100000 ?
b10100000 q
1H
b0 o
b10 r
b10 b
1`
b0 d
b111 [
b111 Z
1B
b0 C
b0 U
b0 j
b10 h
b11 k
1:
#1140
0:
#1145
b0 W
b0 V
b0 &
b10 $
b0 %
b101 '
0B
b100 Z
1a
b100 [
0`
0(
1L
b1 Q
b0 K
b0 m
b1 M
b101000000000000000000000000000000000001000000000000000000000000000000000 0
b11 8
b11 2
1:
#1150
0:
#1155
1*
b110 9
b0 2
b10 M
1N
0L
0H
b1 o
b11 s
0a
b1 d
b0 [
1:
#1160
0:
#1165
1g
b1 h
b100 k
1B
b1 C
b1 U
b1 j
b0 Z
1a
0N
b1 2
b0 8
1:
#1170
0:
#1175
b10 2
17
1L
b10 Q
b1 K
b1 m
b1 M
0a
b10 d
0B
1:
#1180
0:
#1185
b11 b
1`
b100 s
b11 r
1(
b0 )
b0 ?
b0 q
b10 M
1N
0L
07
1:
#1190
0:
#1195
b10 &
b10100000 $
b0 '
0D
b1010000000000000000000000000000000000010 0
b1 8
b1 2
0N
0(
b1 c
0`
1B
b11000000 C
b11000000 U
b11000000 j
1Y
b0 h
b101 k
1:
#1200
0:
#1205
0B
b100 b
b0 c
1L
b11 Q
b11000000 K
b11000000 m
b11 M
b10 2
17
1:
#1210
0:
#1215
07
b0 M
0L
1(
b1 )
b1 ?
b1 q
b101 s
b100 r
b0 e
b101 b
b111000000000000000000000000000000000001000000000000000000000000000000000 \
1:
#1220
0:
#1225
b10100000 &
b0 $
b1 %
b0 ^
b0 f
b1110000000000000000000000000000000000010 \
1_
b1 e
0(
b11 M
b10000000000000000000000000000000000000000000000000000000010100000 0
b10 8
b1 2
1:
#1230
0:
#1235
1D
b10 2
17
b0 M
b10 ^
b10 f
b11100000 \
b10 e
1_
0Y
b1 h
b110 l
1:
#1240
0:
#1245
0*
0g
b10 h
b111 l
b11100000 ^
b11100000 f
b0 \
b11 e
b110 b
1_
1H
b0 o
b101 r
1(
b11000000 )
b11000000 ?
b11000000 q
b0 Q
b1 M
07
1:
#1250
0:
#1255
b0 &
b1 $
b0 %
b110 '
b110000000000000000000000000000000000000100000000000000000000000000000000 0
b11 8
b11 2
b10 M
1N
0(
b1 b
b1000 ]
0_
b11 h
b1000 l
1:
#1260
0:
#1265
b10 V
b10 W
b10 h
b110 k
1B
b0 C
b0 U
b0 j
b10 b
1`
b0 d
b1000 [
b1000 Z
0N
b111 9
b0 2
1:
#1270
0:
#1275
b1 W
b1 V
1L
b1 Q
b0 K
b0 m
b1 M
b10 Z
1a
b10 [
0`
0B
1:
#1280
0:
#1285
b10101 V
1*
0a
b1 d
b1 [
0H
b1 o
b110 s
b10 M
1N
0L
1:
#1290
0:
#1295
b10101 W
b1100 V
b1 2
b0 8
0N
b1 Z
1a
b10101 [
1B
b10 C
b10 U
b10 j
1g
b1 h
b111 k
1:
#1300
0:
#1305
b10 V
0B
0a
b10 d
b1100 [
1L
b10 Q
b10 K
b10 m
b1 M
b10 2
17
1:
#1310
0:
#1315
b1100 W
b1 V
07
b10 M
1N
0L
1(
b0 )
b0 ?
b0 q
b111 s
b110 r
b10101 Z
1a
b10 [
1:
#1320
0:
#1325
b10101 V
0D
b1 &
b11000000 $
b0 '
1Y
b0 h
b1000 k
1B
b11100000 C
b11100000 U
b11100000 j
0a
b11 d
b1 [
0(
0N
b1100000000000000000000000000000000000001 0
b1 8
b1 2
1:
#1330
0:
#1335
b10 W
b1100 V
b10 2
17
1L
b11 Q
b11100000 K
b11100000 m
b11 M
b1100 Z
1a
b10101 [
0B
1:
#1340
0:
#1345
b10 V
0a
b100 d
b1100 [
b1000 s
b111 r
1(
b10 )
b10 ?
b10 q
b0 M
0L
07
1:
#1350
0:
#1355
b11000000 &
b0 $
b10 %
b100000000000000000000000000000000000000000000000000000000011000000 0
b10 8
b1 2
b11 M
0(
b11 b
1`
1:
#1360
0:
#1365
b1 V
b1 c
b10 [
0`
b0 M
b10 2
17
1:
#1370
0:
#1375
b10101 V
0*
07
b11 M
1(
b11100000 )
b11100000 ?
b11100000 q
1H
b0 o
b1000 r
b10 c
b1 [
1:
#1380
0:
#1385
b1100 V
b0 &
b10 $
b0 %
b111 '
b11 c
b10101 [
0(
b0 M
b111000000000000000000000000000000000001000000000000000000000000000000000 0
b11 8
b11 2
1:
#1390
0:
#1395
b10 V
b1000 9
b0 2
b11 M
b100 c
b1100 [
1:
#1400
0:
#1405
b100 b
b11 c
b0 M
1:
#1410
0:
#1415
b11 M
b0 e
b101 b
b1000011000000000000000000000000000000010000000000000000000000000000000011 \
1:
#1420
0:
#1425
b11 ^
b11 f
b10000110000000000000000000000000000000100 \
1_
b1 e
b0 M
1:
#1430
0:
#1435
1D
b11 M
b100 ^
b100 f
b100001100 \
b10 e
1_
0Y
b1 h
b1001 l
1:
#1440
0:
#1445
0g
b10 h
b1010 l
b100001100 ^
b100001100 f
b0 \
b11 e
b110 b
1_
b0 M
1:
#1450
0:
#1455
b0 Q
b1 M
b1 b
b1001 ]
0_
b11 h
b1011 l
1:
#1460
0:
#1465
b10001 V
b10001 W
b10 b
1`
b0 c
b0 d
b1001 [
b1001 Z
b10 M
1N
1:
#1470
0:
#1475
b1100 W
b1100 V
0N
b10001 Z
1a
b10001 [
0`
1B
b11 C
b11 U
b11 j
b10 h
b1001 k
1:
#1480
0:
#1485
b10 V
0B
0a
b1 d
b1100 [
1L
b1 Q
b11 K
b11 m
b1 M
1:
#1490
0:
#1495
b10 W
b1 V
1*
b10 M
1N
0L
0H
b1 o
b1001 s
b1100 Z
1a
b10 [
1:
#1500
0:
#1505
b10101 V
1g
b1 h
b1010 k
1B
b100 C
b100 U
b100 j
0a
b10 d
b1 [
0N
b1 2
b0 8
1:
#1510
0:
#1515
b1 W
b1100 V
b10 2
17
1L
b10 Q
b100 K
b100 m
b1 M
b10 Z
1a
b10101 [
0B
1:
#1520
0:
#1525
b10 V
0a
b11 d
b1100 [
b1010 s
b1001 r
1(
b11 )
b11 ?
b11 q
b10 M
1N
0L
07
1:
#1530
0:
#1535
b10101 W
b1 V
b10 &
b11100000 $
b11 %
b0 '
0D
b110000000000000000000000001110000000000000000000000000000000000010 0
b1 8
b1 2
0N
0(
b1 Z
1a
b10 [
1B
b100001100 C
b100001100 U
b100001100 j
1Y
b0 h
b1011 k
1:
#1540
0:
#1545
b10101 V
0B
0a
b100 d
b1 [
1L
b11 Q
b100001100 K
b100001100 m
b11 M
b10 2
17
1:
#1550
0:
#1555
07
b0 M
0L
1(
b100 )
b100 ?
b100 q
b1011 s
b1010 r
b11 b
1`
1:
#1560
0:
#1565
b1100 V
b11100000 &
b11 $
b100 %
b1 c
b10101 [
0`
0(
b11 M
b1000000000000000000000000000000001100000000000000000000000011100000 0
b10 8
b1 2
1:
#1570
0:
#1575
b10 V
b10 2
17
b0 M
b10 c
b1100 [
1:
#1580
0:
#1585
b1 V
0*
b11 c
b10 [
1H
b0 o
b1011 r
1(
b100001100 )
b100001100 ?
b100001100 q
b11 M
07
1:
#1590
0:
#1595
b10101 V
b11 &
b100 $
b1100 %
b1000 '
b1000011000000000000000000000000000000010000000000000000000000000000000011 0
b11 8
b11 2
b0 M
0(
b100 c
b1 [
1:
#1600
0:
#1605
b100 b
b11 c
b11 M
b1001 9
b0 2
1:
#1610
0:
#1615
b0 M
b0 e
b101 b
b1001000010000000000000000000000000000010000000000000000000000000000000011 \
1:
#1620
0:
#1625
b11 ^
b11 f
b10010000100000000000000000000000000000100 \
1_
b1 e
b11 M
1:
#1630
0:
#1635
1D
b0 M
b100 ^
b100 f
b100100001 \
b10 e
1_
0Y
b1 h
b1100 l
1:
#1640
0:
#1645
0g
b10 h
b1101 l
b100100001 ^
b100100001 f
b0 \
b11 e
b110 b
1_
b0 Q
b1 M
1:
#1650
0:
#1655
b10 M
1N
b1 b
b1010 ]
0_
b11 h
b1110 l
1:
#1660
0:
#1665
b11 V
b11 W
b10 h
b1100 k
1B
b11 C
b11 U
b11 j
b10 b
1`
b0 c
b0 d
b1010 [
b1010 Z
0N
1:
#1670
0:
#1675
b10101 W
b10101 V
1L
b1 Q
b11 K
b11 m
b1 M
b11 Z
1a
b11 [
0`
0B
1:
#1680
0:
#1685
b1100 V
1*
0a
b1 d
b10101 [
0H
b1 o
b1100 s
b10 M
1N
0L
1:
#1690
0:
#1695
b1100 W
b10 V
b1 2
b0 8
0N
b10101 Z
1a
b1100 [
1B
b100 C
b100 U
b100 j
1g
b1 h
b1101 k
1:
#1700
0:
#1705
b1 V
0B
0a
b10 d
b10 [
1L
b10 Q
b100 K
b100 m
b1 M
b10 2
17
1:
#1710
0:
#1715
b10 W
b10101 V
07
b10 M
1N
0L
1(
b11 )
b11 ?
b11 q
b1101 s
b1100 r
b1100 Z
1a
b1 [
1:
#1720
0:
#1725
b1100 V
0D
b100 &
b100001100 $
b11 %
b0 '
1Y
b0 h
b1110 k
1B
b100100001 C
b100100001 U
b100100001 j
0a
b11 d
b10101 [
0(
0N
b110000000000000000000000010000110000000000000000000000000000000100 0
b1 8
b1 2
1:
#1730
0:
