fpga_gen/src/hw/uut.vcd
$date
	Thu Feb 10 21:08:41 2022
$end
$version
	Icarus Verilog
$end
$timescale
	1s
$end
$scope module test_bench_grn_acc_4 $end
$var wire 32 ! transient [31:0] $end
$var wire 5 " s_state [4:0] $end
$var wire 32 # period [31:0] $end
$var wire 5 $ i_state [4:0] $end
$var wire 32 % grn_aws_write_data [31:0] $end
$var wire 1 & grn_aws_request_write $end
$var wire 1 ' grn_aws_request_read $end
$var wire 1 ( grn_aws_done $end
$var reg 1 ) clk $end
$var reg 4 * config_counter [3:0] $end
$var reg 128 + data [127:0] $end
$var reg 2 , fsm_consume_data [1:0] $end
$var reg 2 - fsm_produce_data [1:0] $end
$var reg 1 . grn_aws_available_write $end
$var reg 1 / grn_aws_done_rd_data $end
$var reg 1 0 grn_aws_done_wr_data $end
$var reg 32 1 grn_aws_read_data [31:0] $end
$var reg 1 2 grn_aws_read_data_valid $end
$var reg 6 3 max_data_counter [5:0] $end
$var reg 3 4 rd_counter [2:0] $end
$var reg 1 5 rst $end
$var reg 1 6 start $end
$scope module grn_aws_4 $end
$var wire 1 ) clk $end
$var wire 1 . grn_aws_available_write $end
$var wire 1 / grn_aws_done_rd_data $end
$var wire 1 0 grn_aws_done_wr_data $end
$var wire 32 7 grn_aws_read_data [31:0] $end
$var wire 1 2 grn_aws_read_data_valid $end
$var wire 1 5 rst $end
$var wire 1 6 start $end
$var wire 4 8 grn_pe_output_valid [3:0] $end
$var wire 4 9 grn_pe_output_read_enable [3:0] $end
$var wire 4 : grn_pe_output_available [3:0] $end
$var wire 4 ; grn_pe_config_output_valid [3:0] $end
$var wire 4 < grn_pe_config_output_done [3:0] $end
$var wire 1 ( grn_aws_done $end
$var wire 1 = consume_rd_valid $end
$var wire 32 > consume_rd_data [31:0] $end
$var wire 1 ? consume_rd_available $end
$var reg 32 @ config_data [31:0] $end
$var reg 1 A config_done $end
$var reg 1 B config_valid $end
$var reg 1 C consume_rd_enable $end
$var reg 1 D flag $end
$var reg 2 E fms_cs [1:0] $end
$var reg 2 F fsm_consume_data [1:0] $end
$var reg 1 ' grn_aws_request_read $end
$var reg 1 & grn_aws_request_write $end
$var reg 32 G grn_aws_write_data [31:0] $end
$scope module grn_naive_pe_0 $end
$var wire 1 ) clk $end
$var wire 32 H config_input [31:0] $end
$var wire 1 A config_input_done $end
$var wire 1 B config_input_valid $end
$var wire 1 I pe_bypass_available $end
$var wire 1 J pe_bypass_valid $end
$var wire 1 ? pe_output_available $end
$var wire 1 C pe_output_read_enable $end
$var wire 1 5 rst $end
$var wire 1 = pe_output_valid $end
$var wire 32 K pe_output_data [31:0] $end
$var wire 32 L pe_init_conf [31:0] $end
$var wire 32 M pe_end_conf [31:0] $end
$var wire 32 N pe_bypass_data [31:0] $end
$var wire 1 O grn_output_valid $end
$var wire 32 P grn_output_data [31:0] $end
$var wire 1 Q grn_output_available $end
$var wire 5 R grn_initial_state [4:0] $end
$var wire 5 S grn_final_state [4:0] $end
$var wire 1 T fifo_out_full $end
$var wire 1 U fifo_out_empty $end
$var reg 1 V config_counter $end
$var reg 32 W config_output [31:0] $end
$var reg 1 X config_output_done $end
$var reg 1 Y config_output_valid $end
$var reg 32 Z fifo_out_input_data [31:0] $end
$var reg 1 [ fifo_out_write_enable $end
$var reg 3 \ fsm_pe_jo [2:0] $end
$var reg 1 ] grn_output_read_enable $end
$var reg 1 ^ is_configured $end
$var reg 1 _ pe_bypass_read_enable $end
$var reg 64 ` pe_data_conf [63:0] $end
$var reg 2 a rd_wr_counter [1:0] $end
$var reg 1 b start_grn $end
$scope module grn_naive_core $end
$var wire 1 ) clk $end
$var wire 5 c final_state [4:0] $end
$var wire 5 d initial_state [4:0] $end
$var wire 1 Q output_available $end
$var wire 1 ] output_read_enable $end
$var wire 1 5 rst $end
$var wire 1 b start $end
$var wire 1 O output_valid $end
$var wire 32 e output_data [31:0] $end
$var wire 5 f next_state_s2 [4:0] $end
$var wire 5 g next_state_s1 [4:0] $end
$var wire 1 h fifo_full $end
$var wire 1 i fifo_empty $end
$var reg 5 j actual_state_s1 [4:0] $end
$var reg 5 k actual_state_s2 [4:0] $end
$var reg 128 l data_to_write [127:0] $end
$var reg 5 m exec_state [4:0] $end
$var reg 32 n fifo_input_data [31:0] $end
$var reg 1 o fifo_write_enable $end
$var reg 1 p flag_first_it $end
$var reg 1 q flag_pulse $end
$var reg 3 r fsm_naive [2:0] $end
$var reg 32 s period_counter [31:0] $end
$var reg 32 t transient_counter [31:0] $end
$var reg 2 u write_counter [1:0] $end
$scope module grn_naive_core_output_fifo $end
$var wire 1 ) clk $end
$var wire 32 v input_data [31:0] $end
$var wire 1 ] output_read_enable $end
$var wire 1 5 rst $end
$var wire 1 o write_enable $end
$var reg 1 w almostempty $end
$var reg 1 h almostfull $end
$var reg 6 x data_count [5:0] $end
$var reg 1 i empty $end
$var reg 1 y full $end
$var reg 32 z output_data [31:0] $end
$var reg 1 O output_valid $end
$var reg 5 { read_pointer [4:0] $end
$var reg 5 | write_pointer [4:0] $end
$upscope $end
$upscope $end
$scope module pe_naive_fifo_out $end
$var wire 1 ) clk $end
$var wire 32 } input_data [31:0] $end
$var wire 1 C output_read_enable $end
$var wire 1 5 rst $end
$var wire 1 [ write_enable $end
$var reg 1 ~ almostempty $end
$var reg 1 T almostfull $end
$var reg 6 !" data_count [5:0] $end
$var reg 1 U empty $end
$var reg 1 "" full $end
$var reg 32 #" output_data [31:0] $end
$var reg 1 = output_valid $end
$var reg 5 $" read_pointer [4:0] $end
$var reg 5 %" write_pointer [4:0] $end
$upscope $end
$upscope $end
$scope module grn_naive_pe_1 $end
$var wire 1 ) clk $end
$var wire 32 &" config_input [31:0] $end
$var wire 1 '" config_input_done $end
$var wire 1 (" config_input_valid $end
$var wire 1 )" pe_bypass_available $end
$var wire 1 *" pe_bypass_valid $end
$var wire 1 +" pe_output_available $end
$var wire 1 ," pe_output_read_enable $end
$var wire 1 5 rst $end
$var wire 1 -" pe_output_valid $end
$var wire 32 ." pe_output_data [31:0] $end
$var wire 32 /" pe_init_conf [31:0] $end
$var wire 32 0" pe_end_conf [31:0] $end
$var wire 32 1" pe_bypass_data [31:0] $end
$var wire 1 2" grn_output_valid $end
$var wire 32 3" grn_output_data [31:0] $end
$var wire 1 4" grn_output_available $end
$var wire 5 5" grn_initial_state [4:0] $end
$var wire 5 6" grn_final_state [4:0] $end
$var wire 1 7" fifo_out_full $end
$var wire 1 8" fifo_out_empty $end
$var reg 1 9" config_counter $end
$var reg 32 :" config_output [31:0] $end
$var reg 1 ;" config_output_done $end
$var reg 1 <" config_output_valid $end
$var reg 32 =" fifo_out_input_data [31:0] $end
$var reg 1 >" fifo_out_write_enable $end
$var reg 3 ?" fsm_pe_jo [2:0] $end
$var reg 1 @" grn_output_read_enable $end
$var reg 1 A" is_configured $end
$var reg 1 B" pe_bypass_read_enable $end
$var reg 64 C" pe_data_conf [63:0] $end
$var reg 2 D" rd_wr_counter [1:0] $end
$var reg 1 E" start_grn $end
$scope module grn_naive_core $end
$var wire 1 ) clk $end
$var wire 5 F" final_state [4:0] $end
$var wire 5 G" initial_state [4:0] $end
$var wire 1 4" output_available $end
$var wire 1 @" output_read_enable $end
$var wire 1 5 rst $end
$var wire 1 E" start $end
$var wire 1 2" output_valid $end
$var wire 32 H" output_data [31:0] $end
$var wire 5 I" next_state_s2 [4:0] $end
$var wire 5 J" next_state_s1 [4:0] $end
$var wire 1 K" fifo_full $end
$var wire 1 L" fifo_empty $end
$var reg 5 M" actual_state_s1 [4:0] $end
$var reg 5 N" actual_state_s2 [4:0] $end
$var reg 128 O" data_to_write [127:0] $end
$var reg 5 P" exec_state [4:0] $end
$var reg 32 Q" fifo_input_data [31:0] $end
$var reg 1 R" fifo_write_enable $end
$var reg 1 S" flag_first_it $end
$var reg 1 T" flag_pulse $end
$var reg 3 U" fsm_naive [2:0] $end
$var reg 32 V" period_counter [31:0] $end
$var reg 32 W" transient_counter [31:0] $end
$var reg 2 X" write_counter [1:0] $end
$scope module grn_naive_core_output_fifo $end
$var wire 1 ) clk $end
$var wire 32 Y" input_data [31:0] $end
$var wire 1 @" output_read_enable $end
$var wire 1 5 rst $end
$var wire 1 R" write_enable $end
$var reg 1 Z" almostempty $end
$var reg 1 K" almostfull $end
$var reg 6 [" data_count [5:0] $end
$var reg 1 L" empty $end
$var reg 1 \" full $end
$var reg 32 ]" output_data [31:0] $end
$var reg 1 2" output_valid $end
$var reg 5 ^" read_pointer [4:0] $end
$var reg 5 _" write_pointer [4:0] $end
$upscope $end
$upscope $end
$scope module pe_naive_fifo_out $end
$var wire 1 ) clk $end
$var wire 32 `" input_data [31:0] $end
$var wire 1 ," output_read_enable $end
$var wire 1 5 rst $end
$var wire 1 >" write_enable $end
$var reg 1 a" almostempty $end
$var reg 1 7" almostfull $end
$var reg 6 b" data_count [5:0] $end
$var reg 1 8" empty $end
$var reg 1 c" full $end
$var reg 32 d" output_data [31:0] $end
$var reg 1 -" output_valid $end
$var reg 5 e" read_pointer [4:0] $end
$var reg 5 f" write_pointer [4:0] $end
$upscope $end
$upscope $end
$scope module grn_naive_pe_2 $end
$var wire 1 ) clk $end
$var wire 32 g" config_input [31:0] $end
$var wire 1 h" config_input_done $end
$var wire 1 i" config_input_valid $end
$var wire 1 j" pe_bypass_available $end
$var wire 1 k" pe_bypass_valid $end
$var wire 1 l" pe_output_available $end
$var wire 1 m" pe_output_read_enable $end
$var wire 1 5 rst $end
$var wire 1 n" pe_output_valid $end
$var wire 32 o" pe_output_data [31:0] $end
$var wire 32 p" pe_init_conf [31:0] $end
$var wire 32 q" pe_end_conf [31:0] $end
$var wire 32 r" pe_bypass_data [31:0] $end
$var wire 1 s" grn_output_valid $end
$var wire 32 t" grn_output_data [31:0] $end
$var wire 1 u" grn_output_available $end
$var wire 5 v" grn_initial_state [4:0] $end
$var wire 5 w" grn_final_state [4:0] $end
$var wire 1 x" fifo_out_full $end
$var wire 1 y" fifo_out_empty $end
$var reg 1 z" config_counter $end
$var reg 32 {" config_output [31:0] $end
$var reg 1 |" config_output_done $end
$var reg 1 }" config_output_valid $end
$var reg 32 ~" fifo_out_input_data [31:0] $end
$var reg 1 !# fifo_out_write_enable $end
$var reg 3 "# fsm_pe_jo [2:0] $end
$var reg 1 ## grn_output_read_enable $end
$var reg 1 $# is_configured $end
$var reg 1 %# pe_bypass_read_enable $end
$var reg 64 &# pe_data_conf [63:0] $end
$var reg 2 '# rd_wr_counter [1:0] $end
$var reg 1 (# start_grn $end
$scope module grn_naive_core $end
$var wire 1 ) clk $end
$var wire 5 )# final_state [4:0] $end
$var wire 5 *# initial_state [4:0] $end
$var wire 1 u" output_available $end
$var wire 1 ## output_read_enable $end
$var wire 1 5 rst $end
$var wire 1 (# start $end
$var wire 1 s" output_valid $end
$var wire 32 +# output_data [31:0] $end
$var wire 5 ,# next_state_s2 [4:0] $end
$var wire 5 -# next_state_s1 [4:0] $end
$var wire 1 .# fifo_full $end
$var wire 1 /# fifo_empty $end
$var reg 5 0# actual_state_s1 [4:0] $end
$var reg 5 1# actual_state_s2 [4:0] $end
$var reg 128 2# data_to_write [127:0] $end
$var reg 5 3# exec_state [4:0] $end
$var reg 32 4# fifo_input_data [31:0] $end
$var reg 1 5# fifo_write_enable $end
$var reg 1 6# flag_first_it $end
$var reg 1 7# flag_pulse $end
$var reg 3 8# fsm_naive [2:0] $end
$var reg 32 9# period_counter [31:0] $end
$var reg 32 :# transient_counter [31:0] $end
$var reg 2 ;# write_counter [1:0] $end
$scope module grn_naive_core_output_fifo $end
$var wire 1 ) clk $end
$var wire 32 <# input_data [31:0] $end
$var wire 1 ## output_read_enable $end
$var wire 1 5 rst $end
$var wire 1 5# write_enable $end
$var reg 1 =# almostempty $end
$var reg 1 .# almostfull $end
$var reg 6 ># data_count [5:0] $end
$var reg 1 /# empty $end
$var reg 1 ?# full $end
$var reg 32 @# output_data [31:0] $end
$var reg 1 s" output_valid $end
$var reg 5 A# read_pointer [4:0] $end
$var reg 5 B# write_pointer [4:0] $end
$upscope $end
$upscope $end
$scope module pe_naive_fifo_out $end
$var wire 1 ) clk $end
$var wire 32 C# input_data [31:0] $end
$var wire 1 m" output_read_enable $end
$var wire 1 5 rst $end
$var wire 1 !# write_enable $end
$var reg 1 D# almostempty $end
$var reg 1 x" almostfull $end
$var reg 6 E# data_count [5:0] $end
$var reg 1 y" empty $end
$var reg 1 F# full $end
$var reg 32 G# output_data [31:0] $end
$var reg 1 n" output_valid $end
$var reg 5 H# read_pointer [4:0] $end
$var reg 5 I# write_pointer [4:0] $end
$upscope $end
$upscope $end
$scope module grn_naive_pe_3 $end
$var wire 1 ) clk $end
$var wire 32 J# config_input [31:0] $end
$var wire 1 K# config_input_done $end
$var wire 1 L# config_input_valid $end
$var wire 1 M# pe_bypass_available $end
$var wire 32 N# pe_bypass_data [31:0] $end
$var wire 1 O# pe_bypass_valid $end
$var wire 1 P# pe_output_available $end
$var wire 1 Q# pe_output_read_enable $end
$var wire 1 5 rst $end
$var wire 1 R# pe_output_valid $end
$var wire 32 S# pe_output_data [31:0] $end
$var wire 32 T# pe_init_conf [31:0] $end
$var wire 32 U# pe_end_conf [31:0] $end
$var wire 1 V# grn_output_valid $end
$var wire 32 W# grn_output_data [31:0] $end
$var wire 1 X# grn_output_available $end
$var wire 5 Y# grn_initial_state [4:0] $end
$var wire 5 Z# grn_final_state [4:0] $end
$var wire 1 [# fifo_out_full $end
$var wire 1 \# fifo_out_empty $end
$var reg 1 ]# config_counter $end
$var reg 32 ^# config_output [31:0] $end
$var reg 1 _# config_output_done $end
$var reg 1 `# config_output_valid $end
$var reg 32 a# fifo_out_input_data [31:0] $end
$var reg 1 b# fifo_out_write_enable $end
$var reg 3 c# fsm_pe_jo [2:0] $end
$var reg 1 d# grn_output_read_enable $end
$var reg 1 e# is_configured $end
$var reg 1 f# pe_bypass_read_enable $end
$var reg 64 g# pe_data_conf [63:0] $end
$var reg 2 h# rd_wr_counter [1:0] $end
$var reg 1 i# start_grn $end
$scope module grn_naive_core $end
$var wire 1 ) clk $end
$var wire 5 j# final_state [4:0] $end
$var wire 5 k# initial_state [4:0] $end
$var wire 1 X# output_available $end
$var wire 1 d# output_read_enable $end
$var wire 1 5 rst $end
$var wire 1 i# start $end
$var wire 1 V# output_valid $end
$var wire 32 l# output_data [31:0] $end
$var wire 5 m# next_state_s2 [4:0] $end
$var wire 5 n# next_state_s1 [4:0] $end
$var wire 1 o# fifo_full $end
$var wire 1 p# fifo_empty $end
$var reg 5 q# actual_state_s1 [4:0] $end
$var reg 5 r# actual_state_s2 [4:0] $end
$var reg 128 s# data_to_write [127:0] $end
$var reg 5 t# exec_state [4:0] $end
$var reg 32 u# fifo_input_data [31:0] $end
$var reg 1 v# fifo_write_enable $end
$var reg 1 w# flag_first_it $end
$var reg 1 x# flag_pulse $end
$var reg 3 y# fsm_naive [2:0] $end
$var reg 32 z# period_counter [31:0] $end
$var reg 32 {# transient_counter [31:0] $end
$var reg 2 |# write_counter [1:0] $end
$scope module grn_naive_core_output_fifo $end
$var wire 1 ) clk $end
$var wire 32 }# input_data [31:0] $end
$var wire 1 d# output_read_enable $end
$var wire 1 5 rst $end
$var wire 1 v# write_enable $end
$var reg 1 ~# almostempty $end
$var reg 1 o# almostfull $end
$var reg 6 !$ data_count [5:0] $end
$var reg 1 p# empty $end
$var reg 1 "$ full $end
$var reg 32 #$ output_data [31:0] $end
$var reg 1 V# output_valid $end
$var reg 5 $$ read_pointer [4:0] $end
$var reg 5 %$ write_pointer [4:0] $end
$upscope $end
$upscope $end
$scope module pe_naive_fifo_out $end
$var wire 1 ) clk $end
$var wire 32 &$ input_data [31:0] $end
$var wire 1 Q# output_read_enable $end
$var wire 1 5 rst $end
$var wire 1 b# write_enable $end
$var reg 1 '$ almostempty $end
$var reg 1 [# almostfull $end
$var reg 6 ($ data_count [5:0] $end
$var reg 1 \# empty $end
$var reg 1 )$ full $end
$var reg 32 *$ output_data [31:0] $end
$var reg 1 R# output_valid $end
$var reg 5 +$ read_pointer [4:0] $end
$var reg 5 ,$ write_pointer [4:0] $end
$upscope $end
$upscope $end
$upscope $end
$upscope $end
$enddefinitions $end
#0
$dumpvars
bx ,$
bx +$
bx *$
x)$
bx ($
x'$
b0 &$
bx %$
bx $$
bx #$
x"$
bx !$
x~#
b0 }#
b0 |#
b0 {#
b0 z#
b0 y#
0x#
0w#
0v#
b0 u#
b0 t#
b0 s#
b0 r#
b0 q#
xp#
xo#
b0 n#
b0 m#
bx l#
b0 k#
b0 j#
0i#
b0 h#
b0 g#
0f#
0e#
0d#
b0 c#
0b#
b0 a#
0`#
0_#
b0 ^#
0]#
x\#
x[#
b0 Z#
b0 Y#
xX#
bx W#
xV#
b0 U#
b0 T#
bx S#
xR#
0Q#
xP#
0O#
b0 N#
0M#
0L#
0K#
b0 J#
bx I#
bx H#
bx G#
xF#
bx E#
xD#
b0 C#
bx B#
bx A#
bx @#
x?#
bx >#
x=#
b0 <#
b0 ;#
b0 :#
b0 9#
b0 8#
07#
06#
05#
b0 4#
b0 3#
b0 2#
b0 1#
b0 0#
x/#
x.#
b0 -#
b0 ,#
bx +#
b0 *#
b0 )#
0(#
b0 '#
b0 &#
0%#
0$#
0##
b0 "#
0!#
b0 ~"
0}"
0|"
b0 {"
0z"
xy"
xx"
b0 w"
b0 v"
xu"
bx t"
xs"
bx r"
b0 q"
b0 p"
bx o"
xn"
0m"
xl"
xk"
xj"
0i"
0h"
b0 g"
bx f"
bx e"
bx d"
xc"
bx b"
xa"
b0 `"
bx _"
bx ^"
bx ]"
x\"
bx ["
xZ"
b0 Y"
b0 X"
b0 W"
b0 V"
b0 U"
0T"
0S"
0R"
b0 Q"
b0 P"
b0 O"
b0 N"
b0 M"
xL"
xK"
b0 J"
b0 I"
bx H"
b0 G"
b0 F"
0E"
b0 D"
b0 C"
0B"
0A"
0@"
b0 ?"
0>"
b0 ="
0<"
0;"
b0 :"
09"
x8"
x7"
b0 6"
b0 5"
x4"
bx 3"
x2"
bx 1"
b0 0"
b0 /"
bx ."
x-"
0,"
x+"
x*"
x)"
0("
0'"
b0 &"
bx %"
bx $"
bx #"
x""
bx !"
x~
b0 }
bx |
bx {
bx z
xy
bx x
xw
b0 v
b0 u
b0 t
b0 s
b0 r
0q
0p
0o
b0 n
b0 m
b0 l
b0 k
b0 j
xi
xh
b0 g
b0 f
bx e
b0 d
b0 c
0b
b0 a
b0 `
0_
0^
0]
b0 \
0[
b0 Z
0Y
0X
b0 W
0V
xU
xT
b0 S
b0 R
xQ
bx P
xO
bx N
b0 M
b0 L
bx K
xJ
xI
b0 H
b0 G
b0 F
b0 E
0D
0C
0B
0A
b0 @
x?
bx >
x=
b0 <
b0 ;
b0xxx :
b0 9
b0xxx 8
b0 7
06
15
b0 4
b0 3
02
b0 1
00
0/
0.
b0 -
b0 ,
b0 +
b0 *
0)
0(
0'
0&
b0 %
b0 $
b0 #
b0 "
b0 !
$end
#5
0I
0)"
0j"
0Q
0?
04"
0+"
0J
0u"
0l"
0*"
0X#
b0 :
0P#
0k"
b0 x
b0 |
b0 {
0h
0y
1w
1i
0O
b0 !"
b0 %"
b0 $"
0T
0""
1~
1U
0=
b0 ["
b0 _"
b0 ^"
0K"
0\"
1Z"
1L"
02"
b0 b"
b0 f"
b0 e"
07"
0c"
1a"
18"
0-"
b0 >#
b0 B#
b0 A#
0.#
0?#
1=#
1/#
0s"
b0 E#
b0 I#
b0 H#
0x"
0F#
1D#
1y"
0n"
b0 !$
b0 %$
b0 $$
0o#
0"$
1~#
1p#
0V#
b0 ($
b0 ,$
b0 +$
0[#
0)$
1'$
1\#
b0 8
0R#
1)
#10
0)
#15
1)
#20
0)
#25
12
16
1.
05
1)
#30
0)
#35
b1 E
1D
1'
1)
#40
0)
#45
1B
0D
1'
02
b1 *
1)
#50
0)
#55
b111 1
b111 7
12
b0 E
0'
0B
1V
1)
#60
0)
#65
b1 E
1D
1'
1)
#70
0)
#75
02
b10 *
1B
b111 @
b111 H
0D
1'
1)
#80
0)
#85
b111 S
b111 c
b111 M
b11100000000000000000000000000000000 `
1^
0V
b0 E
0'
0B
b1000 1
b1000 7
12
1)
#90
0)
#95
b1 E
1D
1'
b11 \
1b
1)
#100
0)
#105
b1 r
b0 \
1B
b1000 @
b1000 H
0D
1'
02
b11 *
1)
#110
0)
#115
1("
b1111 1
b1111 7
12
b0 E
0'
0B
b11 \
b1000 W
b1000 &"
b1 ;
1Y
1V
b10 r
1p
1)
#120
0)
#125
b1000 6"
b1000 F"
0("
b1000 0"
1q
0p
b0 ;
0Y
b0 \
b100000000000000000000000000000000000 C"
19"
b1 E
1D
1'
1)
#130
0)
#135
02
b100 *
1B
b1111 @
b1111 H
0D
1'
b11 \
0q
b1 t
1)
#140
0)
#145
1("
b11 r
1p
b1111 W
b1111 &"
b1 ;
1Y
0V
b0 \
b0 E
0'
0B
b10000 1
b10000 7
12
1)
#150
0)
#155
b1000 5"
b1000 G"
b1111 6"
b1111 F"
b1000 /"
b1111 0"
0("
b1 E
1D
1'
b111100000000000000000000000000001000 C"
1A"
09"
b11 \
b0 ;
0Y
b1 s
0p
1)
#160
0)
#165
b100 r
b0 s
b0 \
b11 ?"
1E"
1B
b10000 @
b10000 H
0D
1'
02
b101 *
1)
#170
0)
#175
1("
b10111 1
b10111 7
12
b0 E
0'
0B
b0 ?"
b1 U"
b1000 P"
b11 \
b10000 W
b10000 &"
b1 ;
1Y
1V
b101 r
b100000000000000000000000000000000 l
1)
#180
0)
#185
b10 I"
b10 J"
0("
1i"
b1 l
1o
b1 u
0Y
b0 \
b10 U"
1S"
b1000 N"
b1000 M"
b10000 :"
b10000 g"
b10 ;
1<"
19"
b11 ?"
b1 E
1D
1'
1)
#190
0)
#195
b10000 w"
b10000 )#
b1 J"
b1 I"
b10000 q"
0i"
1Q
02
b110 *
1B
b10111 @
b10111 H
0D
1'
b1000000000000000000000000000000000000 &#
1z"
b0 ?"
b0 ;
0<"
b10 M"
1T"
b10 N"
0S"
b11 \
b1 n
b1 v
b0 l
b10 u
1o
0i
b1 x
b1 |
1)
#200
0)
#205
b10101 I"
1("
0w
b10 x
b10 |
b0 n
b0 v
b11 u
1o
b10111 W
b10111 &"
b1 ;
1Y
0V
b0 \
0T"
b1 W"
b1 N"
b11 ?"
b0 E
0'
0B
b11000 1
b11000 7
12
1)
#210
0)
#215
b10101 J"
b1100 I"
1i"
0("
b1 E
1D
1'
b0 ?"
b10111 :"
b10111 g"
1<"
09"
b1 M"
1T"
b10101 N"
b1 \
b10 ;
0Y
b0 u
b110 r
1o
b11 x
b11 |
1)
#220
0)
#225
b10 I"
b10000 v"
b10000 *#
b10111 w"
b10111 )#
0i"
b10000 p"
b10111 q"
b100 x
b100 |
b1 r
b1 m
0o
b10 \
1]
0T"
b10 W"
b1100 N"
b0 ;
0<"
b11 ?"
b1011100000000000000000000000000010000 &#
1$#
0z"
1B
b11000 @
b11000 H
0D
1'
02
b111 *
1)
#230
0)
#235
b1100 J"
b1 I"
b10101 f
b10101 g
1("
b11111 1
b11111 7
12
b0 E
0'
0B
b11 "#
1(#
b0 ?"
b10101 M"
1T"
b10 N"
0]
b11000 W
b11000 &"
b1 ;
1Y
1V
b10 r
1p
b0 t
b1 k
b1 j
1O
b0 P
b0 e
b0 z
b11 x
b1 {
1)
#240
0)
#245
b1100 g
b1100 f
b10101 I"
0("
1i"
0O
b10101 j
1q
b10101 k
0p
0Y
1[
b1 a
b1 \
0T"
b11 W"
b1 N"
b11000 :"
b11000 g"
b10 ;
1<"
19"
b11 ?"
b1 8#
b10000 3#
b0 "#
b1 E
1D
1'
1)
#250
0)
#255
b10 J"
b1100 I"
b10 f
1L#
0i"
1?
02
b1000 *
1B
b11111 @
b11111 H
0D
1'
b11 "#
b11000 {"
b11000 J#
1}"
1z"
b10 8#
16#
b10000 1#
b10000 0#
b0 ?"
b100 ;
0<"
b1100 M"
1T"
b10101 N"
b10 \
1]
0[
0U
b1 !"
b1 %"
0q
b1 t
b1100 k
1)
#260
0)
#265
b10 g
b1 f
b10 I"
b11000 Z#
b11000 j#
1("
0L#
b11000 U#
b10 x
b10 {
1O
b1 P
b1 e
b1 z
b1100 j
1q
b10 k
b11111 W
b11111 &"
1Y
0V
0]
0T"
b100 W"
b1100 N"
b11 ?"
b0 0#
17#
b0 1#
06#
b1 ;
0}"
b0 "#
b1100000000000000000000000000000000000 g#
1]#
b0 E
0'
0B
b1 F
1C
b1 -
bx 1
bx 7
02
1)
#270
0)
#275
b10101 f
1i"
0("
0?
1/
0C
b11 "#
07#
b1 :#
b0 ?"
b11111 :"
b11111 g"
1<"
09"
b11 U"
1S"
1[
b10 a
b1 Z
b1 }
b1 \
b10 ;
0Y
1=
b0 >
b0 K
b0 #"
1U
b0 !"
b1 $"
0q
b10 t
b1 k
0O
1)
#280
0)
#285
b1 g
b1100 f
b1 I"
1?
0i"
1L#
b10 j
1q
b10101 k
0U
b1 !"
b10 %"
0=
b10 \
1]
0[
b1 V"
b10 N"
0S"
0<"
b11 ?"
b11 8#
16#
b11111 {"
b11111 J#
b100 ;
1}"
0z"
b0 "#
b10 E
b10 F
1)
#290
0)
#295
b11000 Y#
b11000 k#
b11111 Z#
b11111 j#
b10101 I"
b10 f
b11000 T#
b11111 U#
0L#
b0 F
1&
1A
b1111100000000000000000000000000011000 g#
1e#
0]#
b11 "#
b0 ;
0}"
b1 9#
06#
b0 ?"
b10 V"
b1 N"
0]
0q
b11 t
b1100 k
1O
b0 P
b0 e
b0 z
1w
b1 x
b11 {
1)
#300
0)
#305
b10101 g
b1 f
b1100 I"
1'"
0O
b1 j
1q
b10 k
b1 <
1X
1[
b11 a
b0 Z
b0 }
b1 \
b11 V"
b10101 N"
b11 ?"
b100 8#
b0 9#
b0 "#
b11 c#
1i#
b1 F
1C
0&
b1 4
1)
#310
0)
#315
b10 I"
b10101 f
1h"
0C
b0 c#
b1 y#
b11000 t#
b11 "#
b101 8#
b10000000000000000000000000000000000000000000000000000000000000000000100000000000000000000000000000000 2#
b0 ?"
b11 <
1;"
b100 V"
b1100 N"
b10 \
1]
0[
1=
b1 >
b1 K
b1 #"
b11 %"
b10 $"
0q
b100 t
b1 k
1)
#320
0)
#325
b10 m#
b10 n#
0Q
1K#
1i
b0 x
b100 {
1O
b11 r
1p
0=
0]
b100 U"
b11 V"
b11 ?"
b100000000000000000000000000000000000000000000000000000000000000000001 2#
15#
b1 ;#
b111 <
1|"
b0 "#
b10 y#
1w#
b11000 r#
b11000 q#
b11 c#
b10 F
b1 %
b1 G
1)
#330
0)
#335
b1 n#
b1 m#
b1100 f
1u"
b0 F
1&
b0 c#
b1111 <
1_#
b10 q#
1x#
b10 r#
0w#
b11 "#
b1 4#
b1 <#
b1000000000000000000000000000000000000 2#
b10 ;#
15#
0/#
b1 >#
b1 B#
b0 ?"
b101 U"
b1000000000000000000000000000000011000000000000000000000000000000010000000000000000000000000000000011 O"
1[
b0 a
b11 \
b1 s
b10101 k
0p
0O
1)
#340
0)
#345
b10 f
b10101 m#
b1 $
b10 s
b1100 k
0~
b10 !"
b100 %"
b0 \
0[
b11 Q"
b11 Y"
b10000000000000000000000000000000110000000000000000000000000000000100 O"
1R"
b1 X"
b11 ?"
0=#
b10 >#
b10 B#
b0 4#
b0 <#
b10000 2#
b11 ;#
15#
b0 "#
0x#
b1 {#
b1 r#
b11 c#
b1 F
1C
0&
b1000000000000000000000000000000000000000000000000000000000000000000000000000000000000000000000000 +
b10 4
1)
#350
0)
#355
b10101 n#
b1100 m#
b1 f
14"
0C
b0 c#
b1 q#
1x#
b10101 r#
b1 "#
b10000 4#
b10000 <#
b0 2#
b0 ;#
b110 8#
15#
b11 >#
b11 B#
b0 ?"
b100 Q"
b100 Y"
b100000000000000000000000000000001100 O"
b10 X"
1R"
0L"
b1 ["
b1 _"
b11 \
1=
b0 >
b0 K
b0 #"
1~
b1 !"
b11 $"
b11 s
b10 k
1)
#360
0)
#365
b10101 f
b10 m#
b100 s
b1 k
0=
b0 \
0Z"
b10 ["
b10 _"
b1100 Q"
b1100 Y"
b1000 O"
b11 X"
1R"
b1 ?"
b100 >#
b100 B#
b1 8#
b10001 3#
05#
b10 "#
1##
0x#
b10 {#
b1100 r#
b11 c#
b10 F
b0 %
b0 G
1)
#370
0)
#375
b1100 n#
b1 m#
b1100 ,#
b1100 -#
b0 F
1&
b0 c#
b10101 q#
1x#
b10 r#
0##
b10 8#
16#
b0 :#
b10001 1#
b10001 0#
1s"
b0 t"
b0 +#
b0 @#
b11 >#
b1 A#
b10 ?"
1@"
b1000 Q"
b1000 Y"
b0 O"
b0 X"
b110 U"
1R"
b11 ["
b11 _"
b11 \
b100 r
b11 s
1)
#380
0)
#385
b10 -#
b10 ,#
b10101 m#
b1 "
b0 $
b101 r
b1000000000000000000000000000000010000000000000000000000000000010000000000000000000000000000000011 l
b0 \
b100 _"
b1 ^"
12"
b11 3"
b11 H"
b11 ]"
b1 U"
b1001 P"
0R"
0@"
0s"
b1100 0#
17#
b1100 1#
06#
1!#
b1 '#
b1 "#
0x#
b11 {#
b1 r#
b11 c#
b1 F
1C
0&
b10000000000000000000000000000000000000000000000000000000000000000 +
b11 4
1)
#390
0)
