fpga_gen/src/hw/uut.vcd
$date
	Tue Feb  8 15:24:24 2022
$end
$version
	Icarus Verilog
$end
$timescale
	1s
$end
$scope module test_bench_grn_mem_pe $end
$var wire 1 ! grn_pe_mem_pe_bypass_available $end
$var wire 32 " grn_pe_mem_pe_bypass_data [31:0] $end
$var wire 1 # grn_pe_mem_pe_bypass_valid $end
$var wire 32 $ transient [31:0] $end
$var wire 5 % s_state [4:0] $end
$var wire 32 & period [31:0] $end
$var wire 5 ' i_state [4:0] $end
$var wire 1 ( grn_pe_mem_pe_output_valid $end
$var wire 32 ) grn_pe_mem_pe_output_data [31:0] $end
$var wire 1 * grn_pe_mem_pe_output_available $end
$var wire 1 + grn_pe_mem_pe_bypass_read_enable $end
$var wire 1 , grn_pe_mem_config_output_valid $end
$var wire 1 - grn_pe_mem_config_output_done $end
$var wire 32 . grn_pe_mem_config_output [31:0] $end
$var reg 3 / config_counter [2:0] $end
$var reg 128 0 data [127:0] $end
$var reg 1 1 done $end
$var reg 3 2 fsm_consume_data [2:0] $end
$var reg 2 3 fsm_produce_data [1:0] $end
$var reg 32 4 grn_pe_mem_config_input [31:0] $end
$var reg 1 5 grn_pe_mem_config_input_done $end
$var reg 1 6 grn_pe_mem_config_input_valid $end
$var reg 1 7 grn_pe_mem_pe_output_read_enable $end
$var reg 5 8 max_data_counter [4:0] $end
$var reg 2 9 rd_counter [1:0] $end
$var reg 1 : tb_clk $end
$var reg 1 ; tb_rst $end
$scope module grn_mem_pe $end
$var wire 1 : clk $end
$var wire 32 < config_input [31:0] $end
$var wire 1 5 config_input_done $end
$var wire 1 6 config_input_valid $end
$var wire 1 ! pe_bypass_available $end
$var wire 32 = pe_bypass_data [31:0] $end
$var wire 1 # pe_bypass_valid $end
$var wire 1 * pe_output_available $end
$var wire 1 7 pe_output_read_enable $end
$var wire 1 ; rst $end
$var wire 1 ( pe_output_valid $end
$var wire 32 > pe_output_data [31:0] $end
$var wire 32 ? pe_init_conf [31:0] $end
$var wire 32 @ pe_end_conf [31:0] $end
$var wire 1 A grn_output_valid $end
$var wire 32 B grn_output_data [31:0] $end
$var wire 1 C grn_output_available $end
$var wire 5 D grn_initial_state [4:0] $end
$var wire 5 E grn_final_state [4:0] $end
$var wire 48 F grn_equations_config [47:0] $end
$var wire 1 G fifo_out_full $end
$var wire 1 H fifo_out_empty $end
$var reg 1 I config_counter $end
$var reg 1 J config_eq_counter $end
$var reg 32 K config_output [31:0] $end
$var reg 1 - config_output_done $end
$var reg 1 , config_output_valid $end
$var reg 32 L fifo_out_input_data [31:0] $end
$var reg 1 M fifo_out_write_enable $end
$var reg 2 N fsm_config [1:0] $end
$var reg 3 O fsm_pe_jo [2:0] $end
$var reg 1 P grn_output_read_enable $end
$var reg 1 Q is_configured $end
$var reg 1 + pe_bypass_read_enable $end
$var reg 64 R pe_data_conf [63:0] $end
$var reg 64 S pe_eq_conf [63:0] $end
$var reg 2 T rd_wr_counter [1:0] $end
$var reg 1 U start_grn $end
$scope module grn_mem_core $end
$var wire 1 : clk $end
$var wire 48 V equations_config [47:0] $end
$var wire 5 W final_state [4:0] $end
$var wire 5 X initial_state [4:0] $end
$var wire 1 C output_available $end
$var wire 1 P output_read_enable $end
$var wire 1 ; rst $end
$var wire 1 U start $end
$var wire 1 A output_valid $end
$var wire 32 Y output_data [31:0] $end
$var wire 5 Z next_state_s2 [4:0] $end
$var wire 5 [ next_state_s1 [4:0] $end
$var wire 1 \ fifo_full $end
$var wire 1 ] fifo_empty $end
$var wire 4 ^ eq_SciP [3:0] $end
$var wire 4 _ eq_GcrA [3:0] $end
$var wire 16 ` eq_DnaA [15:0] $end
$var wire 16 a eq_CtrA [15:0] $end
$var wire 8 b eq_CcrM [7:0] $end
$var reg 5 c actual_state_s1 [4:0] $end
$var reg 5 d actual_state_s2 [4:0] $end
$var reg 128 e data_to_write [127:0] $end
$var reg 5 f exec_state [4:0] $end
$var reg 32 g fifo_input_data [31:0] $end
$var reg 1 h fifo_write_enable $end
$var reg 1 i flag_first_it $end
$var reg 1 j flag_pulse $end
$var reg 3 k fsm_mem [2:0] $end
$var reg 32 l period_counter [31:0] $end
$var reg 32 m transient_counter [31:0] $end
$var reg 2 n write_counter [1:0] $end
$scope module grn_mem_core_output_fifo $end
$var wire 1 : clk $end
$var wire 32 o input_data [31:0] $end
$var wire 1 P output_read_enable $end
$var wire 1 ; rst $end
$var wire 1 h write_enable $end
$var reg 1 p almostempty $end
$var reg 1 \ almostfull $end
$var reg 5 q data_count [4:0] $end
$var reg 1 ] empty $end
$var reg 1 r full $end
$var reg 32 s output_data [31:0] $end
$var reg 1 A output_valid $end
$var reg 4 t read_pointer [3:0] $end
$var reg 4 u write_pointer [3:0] $end
$upscope $end
$upscope $end
$scope module pe_mem_fifo_out $end
$var wire 1 : clk $end
$var wire 32 v input_data [31:0] $end
$var wire 1 7 output_read_enable $end
$var wire 1 ; rst $end
$var wire 1 M write_enable $end
$var reg 1 w almostempty $end
$var reg 1 G almostfull $end
$var reg 5 x data_count [4:0] $end
$var reg 1 H empty $end
$var reg 1 y full $end
$var reg 32 z output_data [31:0] $end
$var reg 1 ( output_valid $end
$var reg 4 { read_pointer [3:0] $end
$var reg 4 | write_pointer [3:0] $end
$upscope $end
$upscope $end
$upscope $end
$enddefinitions $end
#0
$dumpvars
bx |
bx {
bx z
xy
bx x
xw
b0 v
bx u
bx t
bx s
xr
bx q
xp
b0 o
b0 n
b0 m
b0 l
b0 k
0j
0i
0h
b0 g
b0 f
b0 e
b0 d
b0 c
b0 b
b0 a
b0 `
b0 _
b0 ^
x]
x\
b0 [
b0 Z
bx Y
b0 X
b0 W
b0 V
0U
b0 T
b0 S
b0 R
0Q
0P
b0 O
b0 N
0M
b0 L
b0 K
0J
0I
xH
xG
b0 F
b0 E
b0 D
xC
bx B
xA
b0 @
b0 ?
bx >
b0 =
b0 <
1;
0:
b0 9
b0 8
07
06
05
b0 4
b0 3
b0 2
01
b0 0
b0 /
b0 .
0-
0,
0+
x*
bx )
x(
b0 '
b0 &
b0 %
b0 $
0#
b0 "
0!
$end
#5
0C
0*
b0 q
b0 u
b0 t
0\
0r
1p
1]
0A
b0 x
b0 |
b0 {
0G
0y
1w
1H
0(
1:
#10
0:
#15
1:
#20
0:
#25
b1 /
b1001000000000000001110 4
b1001000000000000001110 <
16
0;
1:
#30
0:
#35
b111000000000 `
b111000000000000000000000000000000000 F
b111000000000000000000000000000000000 V
b10 /
b1000000010 4
b1000000010 <
16
1,
b100100000000000000111000000000000000000000000000000000 S
1J
b1001000000000000001110 .
b1001000000000000001110 K
1:
#40
0:
#45
b1110 a
b100 _
b10 ^
b1000000000 `
b10 b
b100000001000000000001001000000000000001110 F
b100000001000000000001001000000000000001110 V
b100000001000000000001001000000000000001110 S
b1 N
0J
b1000000010 .
b1000000010 K
1,
b11 /
b0 4
b0 <
16
1:
#50
0:
#55
b1 3
b100 /
b11111 4
b11111 <
16
1I
b0 .
b0 K
0,
1:
#60
0:
#65
b11111 E
b11111 W
b11111 @
b1111100000000000000000000000000000000 R
b10 N
1Q
0I
b11111 .
b11111 K
15
06
1:
#70
0:
#75
b11 O
1U
1-
1:
#80
0:
#85
b1 k
b0 O
1:
#90
0:
#95
b11 O
b10 k
1i
1:
#100
0:
#105
1j
0i
b0 O
1:
#110
0:
#115
b11 O
0j
b1 m
1:
#120
0:
#125
b11 k
1i
b0 O
1:
#130
0:
#135
b11 O
b1 l
0i
1:
#140
0:
#145
b100 k
b0 l
b0 O
1:
#150
0:
#155
b11 O
b101 k
b100000000000000000000000000000000 e
1:
#160
0:
#165
b1 e
1h
b1 n
b0 O
1:
#170
0:
#175
1C
b11 O
b1 g
b1 o
b0 e
b10 n
1h
0]
b1 q
b1 u
1:
#180
0:
#185
0p
b10 q
b10 u
b0 g
b0 o
b11 n
1h
b0 O
1:
#190
0:
#195
b1 O
b0 n
b110 k
1h
b11 q
b11 u
1:
#200
0:
#205
b100 q
b100 u
b1 k
b1 f
0h
b10 O
1P
1:
#210
0:
#215
b10101 Z
b10101 [
0P
b10 k
1i
b0 m
b1 d
b1 c
1A
b0 B
b0 Y
b0 s
b11 q
b1 t
1:
#220
0:
#225
b1100 [
b1100 Z
0A
b10101 c
1j
b10101 d
0i
1M
b1 T
b1 O
1:
#230
0:
#235
1*
b10 Z
b10 O
1P
0M
0H
b1 x
b1 |
0j
b1 m
b1100 d
1:
#240
0:
#245
b10 [
b1 Z
b10 q
b10 t
1A
b1 B
b1 Y
b1 s
b1100 c
1j
b10 d
0P
b1 2
1:
#250
0:
#255
b10101 Z
b10 2
17
1M
b10 T
b1 L
b1 v
b1 O
0j
b10 m
b1 d
0A
1:
#260
0:
#265
b1 [
b1100 Z
b10 c
1j
b10101 d
b10 |
b1 {
1(
b0 )
b0 >
b0 z
b10 O
1P
0M
07
1:
#270
0:
#275
b10 Z
b1 9
b1 2
0P
0(
0j
b11 m
b1100 d
1A
b0 B
b0 Y
b0 s
1p
b1 q
b11 t
1:
#280
0:
#285
b10101 [
b1 Z
0A
b1 c
1j
b10 d
1M
b11 T
b0 L
b0 v
b1 O
b10 2
17
1:
#290
0:
#295
b10101 Z
07
b10 O
1P
0M
1(
b1 )
b1 >
b1 z
b11 |
b10 {
0j
b100 m
b1 d
1:
#300
0:
#305
0C
b1 '
1]
b0 q
b100 t
1A
b11 k
1i
0(
0P
b1000000000000000000000000000000000000000000000000000000000000000000000000000000000000000000000000 0
b10 9
b1 2
1:
#310
0:
#315
b1100 Z
b10 2
17
1M
b0 T
b11 O
b1 l
b10101 d
0i
0A
1:
#320
0:
#325
b10 Z
b10 l
b1100 d
b100 |
b11 {
1(
b0 )
b0 >
b0 z
b0 O
0M
07
1:
#330
0:
#335
b1 %
b0 '
b1 Z
b10000000000000000000000000000000000000000000000000000000000000000 0
b11 9
b1 2
b11 O
0(
b11 l
b10 d
1:
#340
0:
#345
b10101 Z
b100 l
b1 d
b0 O
b10 2
17
1:
#350
0:
#355
0*
07
b11 O
1(
1H
b0 x
b100 {
b100 k
b11 l
1:
#360
0:
#365
b1 $
b0 %
b101 k
b1000000000000000000000000000000010000000000000000000000000000010000000000000000000000000000000011 e
0(
b0 O
b100000000000000000000000000000000 0
b0 9
b11 2
1:
#370
0:
#375
b1 8
b0 2
b11 O
b11 g
b11 o
b10000000000000000000000000000000100000000000000000000000000000100 e
1h
b1 n
1:
#380
0:
#385
1C
0]
b1 q
b101 u
b100 g
b100 o
b100000000000000000000000000000001 e
b10 n
1h
b0 O
1:
#390
0:
#395
b1 O
b1 g
b1 o
b1 e
b11 n
1h
0p
b10 q
b110 u
1:
#400
0:
#405
b11 q
b111 u
b0 e
b0 n
b110 k
1h
b10 O
1P
1:
#410
0:
#415
0P
b1 k
b10 f
0h
1A
b11 B
b11 Y
b11 s
b1000 u
b101 t
1:
#420
0:
#425
b1 Z
b1 [
0A
b10 k
1i
b0 l
b0 m
b10 d
b10 c
1M
b1 T
b11 L
b11 v
b1 O
1:
#430
0:
#435
1*
b10101 [
b10101 Z
b10 O
1P
0M
0H
b1 x
b101 |
b1 c
1j
b1 d
0i
1:
#440
0:
#445
b1100 Z
b10 q
b110 t
1A
b100 B
b100 Y
b100 s
0j
b1 m
b10101 d
0P
b1 2
1:
#450
0:
#455
b1100 [
b10 Z
b10 2
17
1M
b10 T
b100 L
b100 v
b1 O
b10101 c
1j
b1100 d
0A
1:
#460
0:
#465
b1 Z
0j
b10 m
b10 d
b110 |
b101 {
1(
b11 )
b11 >
b11 z
b10 O
1P
0M
07
1:
#470
0:
#475
b1 &
b0 $
b11 '
b10 [
b10101 Z
b11000000000000000000000000000000000000000000000000000000000000000000000000000000000000000000000001 0
b1 9
b1 2
0P
0(
b1100 c
1j
b1 d
1A
b1 B
b1 Y
b1 s
1p
b1 q
b111 t
1:
#480
0:
#485
b1100 Z
0A
0j
b11 m
b10101 d
1M
b11 T
b1 L
b1 v
b1 O
b10 2
17
1:
#490
0:
#495
b1 [
b10 Z
07
b10 O
1P
0M
1(
b100 )
b100 >
b100 z
b111 |
b110 {
b10 c
1j
b1100 d
1:
#500
0:
#505
0C
b1 Z
b0 &
b11 %
b100 '
1]
b0 q
b1000 t
1A
0j
b100 m
b10 d
0(
0P
b100000000000000000000000000000000110000000000000000000000000000000000000000000000000000000000000000 0
b10 9
b1 2
1:
#510
0:
#515
b10 2
17
1M
b0 T
b11 O
b11 k
1i
0A
1:
#520
0:
#525
b10101 Z
b1 l
b1 d
0i
b1000 |
b111 {
1(
b1 )
b1 >
b1 z
b0 O
0M
07
1:
#530
0:
#535
b11 $
b100 %
b1 '
b1100 Z
b1000000000000000000000000000001000000000000000000000000000000001100000000000000000000000000000000 0
b11 9
b1 2
b11 O
0(
b10 l
b10101 d
1:
#540
0:
#545
b10 Z
b11 l
b1100 d
b0 O
b10 2
17
1:
#550
0:
#555
0*
b1 Z
07
b11 O
1(
1H
b0 x
b1000 {
b100 l
b10 d
1:
#560
0:
#565
b11 &
b100 $
b1 %
b100 k
b11 l
0(
b0 O
b1000000000000000000000000000000010000000000000000000000000000010000000000000000000000000000000011 0
b0 9
b11 2
1:
#570
0:
#575
b10 8
b0 2
b11 O
b101 k
b10000000000000000000000000000000100000000000000000000000000000010000000000000000000000000000000011 e
1:
#580
0:
#585
b11 g
b11 o
b100000000000000000000000000000001000000000000000000000000000000100 e
1h
b1 n
b0 O
1:
#590
0:
#595
1C
b11 O
b100 g
b100 o
b1000000000000000000000000000000010 e
b10 n
1h
0]
b1 q
b1001 u
1:
#600
0:
#605
0p
b10 q
b1010 u
b10 g
b10 o
b10 e
b11 n
1h
b0 O
1:
#610
0:
#615
b1 O
b0 e
b0 n
b110 k
1h
b11 q
b1011 u
1:
#620
0:
#625
b100 q
b1100 u
b1 k
b11 f
0h
b10 O
1P
1:
#630
0:
#635
b10101 Z
b10101 [
0P
b10 k
1i
b0 l
b0 m
b11 d
b11 c
1A
b11 B
b11 Y
b11 s
b11 q
b1001 t
1:
#640
0:
#645
b1100 [
b1100 Z
0A
b10101 c
1j
b10101 d
0i
1M
b1 T
b11 L
b11 v
b1 O
1:
#650
0:
#655
1*
b10 Z
b10 O
1P
0M
0H
b1 x
b1001 |
0j
b1 m
b1100 d
1:
#660
0:
#665
b10 [
b1 Z
b10 q
b1010 t
1A
b100 B
b100 Y
b100 s
b1100 c
1j
b10 d
0P
b1 2
1:
#670
0:
#675
b10101 Z
b10 2
17
1M
b10 T
b100 L
b100 v
b1 O
0j
b10 m
b1 d
0A
1:
#680
0:
#685
b1 [
b1100 Z
b10 c
1j
b10101 d
b1010 |
b1001 {
1(
b11 )
b11 >
b11 z
b10 O
1P
0M
07
1:
#690
0:
#695
b100 &
b1 $
b11 '
b10 Z
b11000000000000000000000000000000010000000000000000000000000000000100000000000000000000000000000100 0
b1 9
b1 2
0P
0(
0j
b11 m
b1100 d
1A
b10 B
b10 Y
b10 s
1p
b1 q
b1011 t
1:
#700
0:
#705
b10101 [
b1 Z
0A
b1 c
1j
b10 d
1M
b11 T
b10 L
b10 v
b1 O
b10 2
17
1:
#710
0:
#715
b10101 Z
07
b10 O
1P
0M
1(
b100 )
b100 >
b100 z
b1011 |
b1010 {
0j
b100 m
b1 d
1:
#720
0:
#725
0C
b1 &
b11 %
b100 '
1]
b0 q
b1100 t
1A
b11 k
1i
0(
0P
b100000000000000000000000000000000110000000000000000000000000000000100000000000000000000000000000001 0
b10 9
b1 2
1:
#730
0:
#735
b1100 Z
b10 2
17
1M
b0 T
b11 O
b1 l
b10101 d
0i
0A
1:
#740
0:
#745
b10 Z
b10 l
b1100 d
b1100 |
b1011 {
1(
b10 )
b10 >
b10 z
b0 O
0M
07
1:
#750
0:
#755
b11 $
b100 %
b10 '
b1 Z
b10000000000000000000000000000001000000000000000000000000000000001100000000000000000000000000000001 0
b11 9
b1 2
b11 O
0(
b11 l
b10 d
1:
#760
0:
#765
b10101 Z
b100 l
b1 d
b0 O
b10 2
17
1:
#770
0:
#775
0*
07
b11 O
1(
1H
b0 x
b1100 {
b100 k
b11 l
1:
#780
0:
#785
b11 &
b100 $
b10 %
b101 k
b11000000000000000000000000000000010000000000000000000000000000010000000000000000000000000000000011 e
0(
b0 O
b10000000000000000000000000000000100000000000000000000000000000010000000000000000000000000000000011 0
b0 9
b11 2
1:
#790
0:
#795
b11 8
b0 2
b11 O
b11 g
b11 o
b110000000000000000000000000000000100000000000000000000000000000100 e
1h
b1 n
1:
#800
0:
#805
1C
0]
b1 q
b1101 u
b100 g
b100 o
b1100000000000000000000000000000001 e
b10 n
1h
b0 O
1:
#810
0:
#815
b1 O
b1 g
b1 o
b11 e
b11 n
1h
0p
b10 q
b1110 u
1:
#820
0:
#825
b11 q
b1111 u
b11 g
b11 o
b0 e
b0 n
b110 k
1h
b10 O
1P
1:
#830
0:
#835
0P
b1 k
b100 f
0h
1A
b11 B
b11 Y
b11 s
b0 u
b1101 t
1:
#840
0:
#845
b0 Z
b0 [
0A
b10 k
1i
b0 l
b0 m
b100 d
b100 c
1M
b1 T
b11 L
b11 v
b1 O
1:
#850
0:
#855
1*
b10 O
1P
0M
0H
b1 x
b1101 |
b0 c
1j
b0 d
0i
1:
#860
0:
#865
b10 q
b1110 t
1A
b100 B
b100 Y
b100 s
0j
b1 m
0P
b1 2
1:
#870
0:
#875
b10 2
17
1M
b10 T
b100 L
b100 v
b1 O
b11 k
1i
0A
1:
#880
0:
#885
b1 l
0i
b1110 |
b1101 {
1(
b11 )
b11 >
b11 z
b10 O
1P
0M
07
1:
#890
0:
#895
b100 &
b10 $
b11 '
b11000000000000000000000000000000100000000000000000000000000000001000000000000000000000000000000100 0
b1 9
b1 2
0P
0(
b100 k
b0 l
1A
b1 B
b1 Y
b1 s
1p
b1 q
b1111 t
1:
#900
0:
#905
0A
b101 k
b100000000000000000000000000000000000000000000000000000000000000000100000000000000000000000000000000 e
1M
b11 T
b1 L
b1 v
b1 O
b10 2
17
1:
#910
0:
#915
07
b10 O
1P
0M
1(
b100 )
b100 >
b100 z
b1111 |
b1110 {
b0 g
b0 o
b1000000000000000000000000000000000000000000000000000000000000000001 e
1h
b1 n
1:
#920
0:
#925
b10 &
b11 %
b100 '
b1 u
b0 t
1A
b11 B
b11 Y
b11 s
b1 g
b1 o
b10000000000000000000000000000000000 e
b10 n
1h
0(
0P
b100000000000000000000000000000000110000000000000000000000000000001000000000000000000000000000000010 0
b10 9
b1 2
1:
#930
0:
#935
b10 2
17
1M
b0 T
b11 L
b11 v
b11 O
b0 g
b0 o
b100 e
b11 n
1h
0A
0p
b10 q
b10 u
1:
#940
0:
#945
b11 q
b11 u
b100 g
b100 o
b0 e
b0 n
b110 k
1h
b0 |
b1111 {
1(
b1 )
b1 >
b1 z
b0 O
0M
07
1:
#950
0:
#955
b11 $
b100 %
b1 '
b1000000000000000000000000000001000000000000000000000000000000001100000000000000000000000000000010 0
b11 9
b1 2
b1 O
0(
b1 k
b101 f
0h
b100 q
b100 u
1:
#960
0:
#965
b100 Z
b100 [
b10 k
1i
b0 m
b101 d
b101 c
b10 O
1P
b10 2
17
1:
#970
0:
#975
0*
b0 [
b0 Z
07
0P
1(
b11 )
b11 >
b11 z
1H
b0 x
b0 {
b100 c
1j
b100 d
0i
1A
b0 B
b0 Y
b0 s
b11 q
b1 t
1:
#980
0:
#985
b11 &
b100 $
b1 %
b11 '
0A
0j
b1 m
b0 d
0(
1M
b1 T
b0 L
b0 v
b1 O
b11000000000000000000000000000000010000000000000000000000000000010000000000000000000000000000000011 0
b0 9
b11 2
1:
#990
0:
#995
1*
b100 8
b0 2
b10 O
1P
0M
0H
b1 x
b1 |
b0 c
1j
1:
#1000
0:
#1005
b10 q
b10 t
1A
b1 B
b1 Y
b1 s
0j
b10 m
0P
b1 2
1:
#1010
0:
#1015
b10 2
17
1M
b10 T
b1 L
b1 v
b1 O
b11 k
1i
0A
1:
#1020
0:
#1025
b1 l
0i
b10 |
b1 {
1(
b0 )
b0 >
b0 z
b10 O
1P
0M
07
1:
#1030
0:
#1035
b100 &
b1 $
b11 %
b0 '
b110000000000000000000000000000000100000000000000000000000000000100 0
b1 9
b1 2
0P
0(
b100 k
b0 l
1A
b0 B
b0 Y
b0 s
1p
b1 q
b11 t
1:
#1040
0:
#1045
0A
b101 k
b101000000000000000000000000000000000000000000000000000000000000001000000000000000000000000000000000 e
1M
b11 T
b0 L
b0 v
b1 O
b10 2
17
1:
#1050
0:
#1055
07
b10 O
1P
0M
1(
b1 )
b1 >
b1 z
b11 |
b10 {
b0 g
b0 o
b1010000000000000000000000000000000000000000000000000000000000000010 e
1h
b1 n
1:
#1060
0:
#1065
b1 &
b11 $
b0 %
b1 '
b101 u
b100 t
1A
b100 B
b100 Y
b100 s
b10 g
b10 o
b10100000000000000000000000000000000 e
b10 n
1h
0(
0P
b1000000000000000000000000000000000000000000000000000000000000001100000000000000000000000000000001 0
b10 9
b1 2
1:
#1070
0:
#1075
b10 2
17
1M
b0 T
b100 L
b100 v
b11 O
b0 g
b0 o
b101 e
b11 n
1h
0A
0p
b10 q
b110 u
1:
#1080
0:
#1085
b11 q
b111 u
b101 g
b101 o
b0 e
b0 n
b110 k
1h
b100 |
b11 {
1(
b0 )
b0 >
b0 z
b0 O
0M
07
1:
#1090
0:
#1095
b11 &
b0 $
b1 %
b0 '
b10000000000000000000000000000000000000000000000000000000000000011 0
b11 9
b1 2
b1 O
0(
b1 k
b110 f
0h
b100 q
b1000 u
1:
#1100
0:
#1105
b0 Z
b0 [
b10 k
1i
b0 m
b110 d
b110 c
b10 O
1P
b10 2
17
1:
#1110
0:
#1115
0*
07
0P
1(
b100 )
b100 >
b100 z
1H
b0 x
b100 {
b0 c
1j
b0 d
0i
1A
b0 B
b0 Y
b0 s
b11 q
b101 t
1:
#1120
0:
#1125
b0 &
b1 $
b0 %
b100 '
0A
0j
b1 m
0(
1M
b1 T
b0 L
b0 v
b1 O
b100000000000000000000000000000000000000000000000000000000000000000100000000000000000000000000000000 0
b0 9
b11 2
1:
#1130
0:
#1135
1*
b101 8
b0 2
b10 O
1P
0M
0H
b1 x
b101 |
b11 k
1i
1:
#1140
0:
#1145
b10 q
b110 t
1A
b10 B
b10 Y
b10 s
b1 l
0i
0P
b1 2
1:
#1150
0:
#1155
b10 2
17
1M
b10 T
b10 L
b10 v
b1 O
b100 k
b0 l
0A
1:
#1160
0:
#1165
b101 k
b110000000000000000000000000000000000000000000000000000000000000000100000000000000000000000000000000 e
b110 |
b101 {
1(
b0 )
b0 >
b0 z
b10 O
1P
0M
07
1:
#1170
0:
#1175
b1 &
b0 $
b100 %
b0 '
b1000000000000000000000000000000000000000000000000000000000000000001 0
b1 9
b1 2
0P
0(
b0 g
b0 o
b1100000000000000000000000000000000000000000000000000000000000000001 e
1h
b1 n
1A
b0 B
b0 Y
b0 s
1p
b1 q
b111 t
1:
#1180
0:
#1185
0p
b10 q
b1001 u
0A
b1 g
b1 o
b11000000000000000000000000000000000 e
b10 n
1h
1M
b11 T
b0 L
b0 v
b1 O
b10 2
17
1:
#1190
0:
#1195
07
b10 O
1P
0M
1(
b10 )
b10 >
b10 z
b111 |
b110 {
b0 g
b0 o
b110 e
b11 n
1h
b11 q
b1010 u
1:
#1200
0:
#1205
b0 &
b100 $
b0 %
b10 '
b1011 u
b1000 t
1A
b101 B
b101 Y
b101 s
b110 g
b110 o
b0 e
b0 n
b110 k
1h
0(
0P
b10000000000000000000000000000000000000000000000000000000000000010000000000000000000000000000000000 0
b10 9
b1 2
1:
#1210
0:
#1215
b10 2
17
1M
b0 T
b101 L
b101 v
b11 O
b1 k
b111 f
0h
0A
b100 q
b1100 u
1:
#1220
0:
#1225
b100 Z
b100 [
b10 k
1i
b0 m
b111 d
b111 c
b1000 |
b111 {
1(
b0 )
b0 >
b0 z
b0 O
0M
07
1:
#1230
0:
#1235
b100 &
b0 $
b10 %
b0 '
b0 [
b0 Z
b100000000000000000000000000000000000000000000000000000000000000100 0
b11 9
b1 2
b1 O
0(
b100 c
1j
b100 d
0i
1:
#1240
0:
#1245
0j
b1 m
b0 d
b10 O
1P
b10 2
17
1:
#1250
0:
#1255
0*
07
0P
1(
b101 )
b101 >
b101 z
1H
b0 x
b1000 {
b0 c
1j
1A
b0 B
b0 Y
b0 s
b11 q
b1001 t
1:
#1260
0:
#1265
b0 &
b10 $
b0 %
b101 '
0A
0j
b10 m
0(
1M
b1 T
b0 L
b0 v
b1 O
b101000000000000000000000000000000000000000000000000000000000000001000000000000000000000000000000000 0
b0 9
b11 2
1:
#1270
0:
#1275
1*
b110 8
b0 2
b10 O
1P
0M
0H
b1 x
b1001 |
b11 k
1i
1:
#1280
0:
#1285
b10 q
b1010 t
1A
b1 B
b1 Y
b1 s
b1 l
0i
0P
b1 2
1:
#1290
0:
#1295
b10 2
17
1M
b10 T
b1 L
b1 v
b1 O
b100 k
b0 l
0A
1:
#1300
0:
#1305
b101 k
b111000000000000000000000000000000000000000000000000000000000000001000000000000000000000000000000000 e
b1010 |
b1001 {
1(
b0 )
b0 >
b0 z
b10 O
1P
0M
07
1:
#1310
0:
#1315
b10 &
b0 $
b101 %
b0 '
b1010000000000000000000000000000000000000000000000000000000000000010 0
b1 9
b1 2
0P
0(
b0 g
b0 o
b1110000000000000000000000000000000000000000000000000000000000000010 e
1h
b1 n
1A
b0 B
b0 Y
b0 s
1p
b1 q
b1011 t
1:
#1320
0:
#1325
0p
b10 q
b1101 u
0A
b10 g
b10 o
b11100000000000000000000000000000000 e
b10 n
1h
1M
b11 T
b0 L
b0 v
b1 O
b10 2
17
1:
#1330
0:
#1335
07
b10 O
1P
0M
1(
b1 )
b1 >
b1 z
b1011 |
b1010 {
b0 g
b0 o
b111 e
b11 n
1h
b11 q
b1110 u
1:
#1340
0:
#1345
b0 &
b101 $
b0 %
b1 '
b1111 u
b1100 t
1A
b110 B
b110 Y
b110 s
b111 g
b111 o
b0 e
b0 n
b110 k
1h
0(
0P
b1000000000000000000000000000000000000000000000000000000000000010100000000000000000000000000000000 0
b10 9
b1 2
1:
#1350
0:
#1355
b10 2
17
1M
b0 T
b110 L
b110 v
b11 O
b1 k
b1000 f
0h
0A
b100 q
b0 u
1:
#1360
0:
#1365
b10 Z
b10 [
b10 k
1i
b0 m
b1000 d
b1000 c
b1100 |
b1011 {
1(
b0 )
b0 >
b0 z
b0 O
0M
07
1:
#1370
0:
#1375
b101 &
b0 $
b1 %
b0 '
b1 [
b1 Z
b10000000000000000000000000000000000000000000000000000000000000101 0
b11 9
b1 2
b1 O
0(
b10 c
1j
b10 d
0i
1:
#1380
0:
#1385
b10101 Z
0j
b1 m
b1 d
b10 O
1P
b10 2
17
1:
#1390
0:
#1395
0*
b10101 [
b1100 Z
07
0P
1(
b110 )
b110 >
b110 z
1H
b0 x
b1100 {
b1 c
1j
b10101 d
1A
b0 B
b0 Y
b0 s
b11 q
b1101 t
1:
#1400
0:
#1405
b10 Z
b0 &
b1 $
b0 %
b110 '
0A
0j
b10 m
b1100 d
0(
1M
b1 T
b0 L
b0 v
b1 O
b110000000000000000000000000000000000000000000000000000000000000000100000000000000000000000000000000 0
b0 9
b11 2
1:
#1410
0:
#1415
1*
b1100 [
b1 Z
b111 8
b0 2
b10 O
1P
0M
0H
b1 x
b1101 |
b10101 c
1j
b10 d
1:
#1420
0:
#1425
b10101 Z
b10 q
b1110 t
1A
b10 B
b10 Y
b10 s
0j
b11 m
b1 d
0P
b1 2
1:
#1430
0:
#1435
b10 [
b1100 Z
b10 2
17
1M
b10 T
b10 L
b10 v
b1 O
b1100 c
1j
b10101 d
0A
1:
#1440
0:
#1445
b10 Z
0j
b100 m
b1100 d
b1110 |
b1101 {
1(
b0 )
b0 >
b0 z
b10 O
1P
0M
07
1:
#1450
0:
#1455
b1 &
b0 $
b110 %
b0 '
b1100000000000000000000000000000000000000000000000000000000000000001 0
b1 9
b1 2
0P
0(
b11 k
1i
1A
b0 B
b0 Y
b0 s
1p
b1 q
b1111 t
1:
#1460
0:
#1465
b1 Z
0A
b1 l
b10 d
0i
1M
b11 T
b0 L
b0 v
b1 O
b10 2
17
1:
#1470
0:
#1475
b10101 Z
07
b10 O
1P
0M
1(
b10 )
b10 >
b10 z
b1111 |
b1110 {
b10 l
b1 d
1:
#1480
0:
#1485
0C
b1100 Z
b0 &
b110 $
b0 %
b10 '
1]
b0 q
b0 t
1A
b111 B
b111 Y
b111 s
b11 l
b10101 d
0(
0P
b10000000000000000000000000000000000000000000000000000000000000011000000000000000000000000000000000 0
b10 9
b1 2
1:
#1490
0:
#1495
b10 Z
b10 2
17
1M
b0 T
b111 L
b111 v
b11 O
b100 l
b1100 d
0A
1:
#1500
0:
#1505
b100 k
b11 l
b0 |
b1111 {
1(
b0 )
b0 >
b0 z
b0 O
0M
07
1:
#1510
0:
#1515
b110 &
b0 $
b10 %
b0 '
b100000000000000000000000000000000000000000000000000000000000000110 0
b11 9
b1 2
b11 O
0(
b101 k
b1000000000000000000000000000000011000000000000000000000000000000010000000000000000000000000000000011 e
1:
#1520
0:
#1525
b11 g
b11 o
b10000000000000000000000000000000110000000000000000000000000000000100 e
1h
b1 n
b0 O
b10 2
17
1:
#1530
0:
#1535
0*
1C
07
b11 O
1(
b111 )
b111 >
b111 z
1H
b0 x
b0 {
b100 g
b100 o
b100000000000000000000000000000001100 e
b10 n
1h
0]
b1 q
b1 u
1:
#1540
0:
#1545
b0 &
b10 $
b0 %
b111 '
0p
b10 q
b10 u
b1100 g
b1100 o
b1000 e
b11 n
1h
0(
b0 O
b111000000000000000000000000000000000000000000000000000000000000001000000000000000000000000000000000 0
b0 9
b11 2
1:
#1550
0:
